{
    "app_categories": {
        "Connectivity": "kalavaDika",
        "Development": "అభివృద్ధి",
        "Games": "ఆట",
        "Graphics": "గ్రాఫిక్స్",
        "Internet": "అంతర్జాలం",
        "Money": "డబ్బు",
        "Multimedia": "మల్టీమీడియా",
        "Navigation": "నౌకాయానం",
        "Phone & SMS": "ఫోన్ & ఎస్ఎంఎస్",
        "Reading": "చదవటం",
        "Science & Education": "విజ్ఞానం & విద్య",
        "Security": "రక్షణ",
        "Sports & Health": "క్రీడలు & ఆరోగ్యం",
        "System": "వ్యవస్థ",
        "Time": "సమయం",
        "Writing": "వ్రాయటం",
        "show_all_packages": "మొత్తం %d ని వీక్షించండి"
    },
    "mirrors": {
        "cn": "చైనా మెయిన్‌ల్యాండ్",
        "de": "జర్మనీ",
        "se": "స్వీడన్",
        "tw": "తైవాన్",
        "ua": "ఉక్రెయిన్"
    },
    "permissions": {
        "permdesc_acceptHandovers": "మరో యాప్‌లో ప్రారంభించిన కాల్‌ని కొనసాగించడానికి యాప్‌ని అనుమతిస్తుంది.",
        "permdesc_accessBackgroundLocation": "యాప్ ఉపయోగంలో లేనప్పటికీ కూడా, ఈ యాప్, లొకేషన్‌ను ఎప్పుడైనా యాక్సెస్ చేయగలదు.",
        "permdesc_accessCoarseLocation": "యాప్ ఉపయోగంలో ఉన్నప్పుడు మాత్రమే ఈ యాప్ మీ ఇంచుమించు లొకేషన్‌ను లొకేషన్ సర్వీస్‌ల నుండి తెలుసుకోగలదు. లొకేషన్‌ను యాప్ పొందాలంటే, దాని కోసం మీ పరికరం యొక్క లొకేషన్ సర్వీస్‌లను తప్పనిసరిగా ఆన్ చేయాలి.",
        "permdesc_accessDrmCertificates": "DRM ప్రమాణపత్రాలను కేటాయించడానికి మరియు ఉపయోగించడానికి అనువర్తనాన్ని అనుమతిస్తుంది. సాధారణ అనువర్తనాలకు ఎప్పటికీ అవసరం ఉండదు.",
        "permdesc_accessFineLocation": "యాప్ ఉపయోగంలో ఉన్నప్పుడు మాత్రమే ఈ యాప్ మీ ఖచ్చితమైన లొకేషన్‌ను లొకేషన్ సర్వీస్‌ల ద్వారా తెలుసుకోగలదు. లొకేషన్‌ను యాప్ పొందాలంటే, దాని కోసం మీ పరికరం యొక్క లొకేషన్ సర్వీస్‌లను తప్పనిసరిగా ఆన్ చేయాలి. ఇది బ్యాటరీ వినియోగాన్ని పెంచవచ్చు.",
        "permdesc_accessImsCallService": "మీ ప్రమేయం లేకుండా కాల్‌లు చేయడం కోసం IMS సేవను ఉపయోగించడానికి అనువర్తనాన్ని అనుమతిస్తుంది.",
        "permdesc_accessLocationExtraCommands": "అదనపు స్థాన ప్రదాత ఆదేశాలను యాక్సెస్ చేయడానికి యాప్‌ను అనుమతిస్తుంది. ఇది GPS లేదా ఇతర స్థాన మూలాల నిర్వహణలో యాప్‌ ప్రమేయం ఉండేలా అనుమతించవచ్చు.",
        "permdesc_accessNetworkConditions": "నెట్‌వర్క్ పరిస్థితులపై పరిశీలనల గురించి తెలుసుకోవడానికి అనువర్తనాన్ని అనుమతిస్తుంది. సాధారణ అనువర్తనాలకు ఎప్పటికీ అవసరం ఉండకూడదు.",
        "permdesc_accessNetworkState": "ఏ నెట్‌వర్క్‌లు ఉన్నాయి మరియు కనెక్ట్ చేయబడ్డాయి వంటి నెట్‌వర్క్ కనెక్షన్‌ల గురించి సమాచారాన్ని వీక్షించడానికి యాప్‌ను అనుమతిస్తుంది.",
        "permdesc_accessNotifications": "నోటిఫికేషన్‌లను, ఇతర అనువర్తనాల ద్వారా పోస్ట్ చేయబడిన వాటిని తిరిగి పొందడానికి, పరిశీలించడానికి మరియు క్లియర్ చేయడానికి అనువర్తనాన్ని అనుమతిస్తుంది.",
        "permdesc_accessWifiState": "Wi-Fi ప్రారంభించబడిందా, లేదా మరియు కనెక్ట్ చేయబడిన Wi-Fi పరికరాల పేరు వంటి Wi-Fi నెట్‌వర్కింగ్ గురించి సమాచారాన్ని వీక్షించడానికి అనువర్తనాన్ని అనుమతిస్తుంది.",
        "permdesc_accessWimaxState": "Wi-Fi ప్రారంభించబడిందా, లేదా మరియు కనెక్ట్ చేయబడిన WiMAX నెట్‌వర్క్‌ల గురించి సమాచారాన్ని కనుగొనడానికి యాప్‌ను అనుమతిస్తుంది.",
        "permdesc_access_notification_policy": "అంతరాయం కలిగించవద్దు ఎంపిక కాన్ఫిగరేషన్ చదవడానికి మరియు వ్రాయడానికి అనువర్తనాన్ని అనుమతిస్తుంది.",
        "permdesc_activityRecognition": "ఈ యాప్ మీ భౌతిక కార్యాకలాపాన్ని గుర్తించగలదు.",
        "permdesc_addVoicemail": "మీ వాయిస్ మెయిల్ ఇన్‌బాక్స్‌కి సందేశాలను జోడించడానికి యాప్‌ను అనుమతిస్తుంది.",
        "permdesc_answerPhoneCalls": "ఇన్‌కమింగ్ ఫోన్ కాల్‌లకు సమాధానమివ్వడానికి అనువర్తనాన్ని అనుమతిస్తుంది.",
        "permdesc_audioWrite": "మీ సంగీత సేకరణని సవరించడానికి యాప్‌ను అనుమతిస్తుంది.",
        "permdesc_backgroundCamera": "ఈ యాప్, కెమెరాను ఉపయోగించి ఎప్పుడు కావాలంటే అప్పుడు ఫోటోలు తీయగలదు, వీడియోలు రికార్డ్ చేయగలదు.",
        "permdesc_bindCarrierMessagingService": "క్యారియర్ సందేశ సేవ యొక్క అగ్ర-స్థాయి ఇంటర్‌ఫేస్‌కు అనుబంధించడానికి హోల్డర్‌ను అనుమతిస్తుంది. సాధారణ అనువర్తనాలకు ఎప్పటికీ అవసరం ఉండదు.",
        "permdesc_bindCarrierServices": "క్యారియర్ సేవలకు అనుబంధించడానికి హోల్డర్‌ను అనుమతిస్తుంది. సాధారణ అనువర్తనాలకు ఎప్పటికీ అవసరం ఉండదు.",
        "permdesc_bindCellBroadcastService": "సెల్ ప్రసార సందేశాలను అందుకుంటే, వాటిని ఫార్వర్డ్ చేసే విధంగా సెల్ ప్రసార మాడ్యూల్‌కు కట్టుబడి ఉండటానికి యాప్‌ను అనుమతిస్తుంది. సెల్ ప్రసార హెచ్చరికలు అత్యవసర పరిస్థితుల గురించి మిమ్మల్ని హెచ్చరించడానికి కొన్ని స్థానాల్లో అందించబడతాయి. అత్యవసర సెల్ ప్రసారం అందుకున్నప్పుడు హానికరమైన యాప్‌లు మీ పరికరం యొక్క పనితీరు లేదా నిర్వహణకు అంతరాయం కలిగించవచ్చు.",
        "permdesc_bindConditionProviderService": "షరతు ప్రదాత సేవ యొక్క అగ్ర-స్థాయి ఇంటర్‌ఫేస్‌కు అనుబంధించడానికి హోల్డర్‌ను అనుమతిస్తుంది. సాధారణ అనువర్తనాలకు ఎప్పటికీ అవసరం ఉండదు.",
        "permdesc_bindDreamService": "డ్రీమ్ సేవ యొక్క అగ్ర-స్థాయి ఇంటర్‌ఫేస్‌కు అనుబంధించడానికి హోల్డర్‌ను అనుమతిస్తుంది. సాధారణ అనువర్తనాలకు ఎప్పటికీ అవసరం ఉండదు.",
        "permdesc_bindNotificationListenerService": "నోటిఫికేషన్ పరిశీలన సేవ యొక్క అగ్ర-స్థాయి ఇంటర్‌ఫేస్‌కు అనుబంధించడానికి హోల్డర్‌ను అనుమతిస్తుంది. సాధారణ అనువర్తనాల కోసం ఎప్పటికీ అవసరం ఉండకూడదు.",
        "permdesc_bind_connection_service": "కాల్‌లు చేయడం/స్వీకరించడం కోసం టెలిఫోన్ సేవలతో పరస్పర చర్య చేయడానికి అనువర్తనాన్ని అనుమతిస్తుంది.",
        "permdesc_bind_incall_service": "వినియోగదారునికి ఇన్-కాల్ స్క్రీన్ ఎప్పుడు, ఎలా కనిపించాలనే దాన్ని నియంత్రించడానికి అనువర్తనాన్ని అనుమతిస్తుంది.",
        "permdesc_bluetooth": "టాబ్లెట్‌లో బ్లూటూత్ యొక్క కాన్ఫిగరేషన్‌ను వీక్షించడానికి మరియు జత చేయబడిన పరికరాలతో కనెక్షన్‌లను ఏర్పాటు చేయడానికి మరియు ఆమోదించడానికి యాప్‌ను అనుమతిస్తుంది.",
        "permdesc_bluetoothAdmin": "స్థానిక బ్లూటూత్ టాబ్లెట్‌ను కాన్ఫిగర్ చేయడానికి మరియు రిమోట్ పరికరాలతో దాన్ని కనుగొనడానికి మరియు జత చేయడానికి యాప్‌ను అనుమతిస్తుంది.",
        "permdesc_bluetooth_advertise": "సమీపంలోని బ్లూటూత్ పరికరాలలో అడ్వర్టయిజ్ చేయడానికి యాప్‌కు అనుమతిని ఇస్తుంది",
        "permdesc_bluetooth_connect": "పెయిర్ చేసిన బ్లూటూత్ పరికరాలకు కనెక్ట్ అవ్వడానికి యాప్‌ను అనుమతిస్తుంది",
        "permdesc_bluetooth_scan": "సమీపంలోని బ్లూటూత్ పరికరాలను కనుగొనడానికి, పెయిర్ చేయడానికి యాప్‌ను అనుమతిస్తుంది",
        "permdesc_bodySensors": "మీ శారీరక పరిస్థితిని అనగా మీ గుండె స్పందన రేటు వంటి వాటిని పర్యవేక్షించే సెన్సార్‌ల నుండి డేటాను యాక్సెస్ చేయడానికి యాప్‌ను అనుమతిస్తుంది.",
        "permdesc_bodySensors_background": "యాప్ బ్యాక్‌గ్రౌండ్‌లో ఉన్నప్పుడు గుండె స్పందన రేటు, ఉష్ణోగ్రత, ఇంకా రక్తంలోని ఆక్సిజన్ శాతం వంటి శరీర సెన్సార్ డేటాను యాక్సెస్ చేయడానికి యాప్‌ను అనుమతిస్తుంది.",
        "permdesc_broadcastSticky": "ప్రసారం ముగిసిన తర్వాత భద్రపరచబడే ప్రసారాలను పంపడానికి యాప్‌ను అనుమతిస్తుంది. అత్యధిక వినియోగం వలన టాబ్లెట్ నెమ్మదిగా పని చేయవచ్చు లేదా అధిక పరిమాణంలో మెమరీని ఉపయోగించడం వలన అస్థిరంగా మారవచ్చు.",
        "permdesc_callCompanionApp": "పరికరంలో కొనసాగుతున్న కాల్‌లను చూడడానికి మరియు నియంత్రించడానికి యాప్‌ను అనుమతిస్తుంది. ఇందులో కాల్ కోసం కాల్‌ల నంబర్‌లు మరియు రాష్ట్ర కాల్ వంటి సమాచారం ఉంటుంది.",
        "permdesc_callPhone": "మీ ప్రమేయం లేకుండా ఫోన్ నంబర్‌లకు కాల్ చేయడానికి యాప్‌ను అనుమతిస్తుంది. దీని వలన అనుకోని ఛార్జీలు విధించబడవచ్చు లేదా కాల్‌లు రావచ్చు. ఇది అత్యవసర నంబర్‌లకు కాల్ చేయడానికి యాప్‌ను అనుమతించదని గుర్తుంచుకోండి. హానికరమైన యాప్‌లు మీ నిర్ధారణ లేకుండానే కాల్‌లు చేయడం ద్వారా మీకు డబ్బు ఖర్చయ్యేలా చేయవచ్చు.",
        "permdesc_camera": "యాప్ ఉపయోగంలో ఉన్నపుడు కెమెరాను ఉపయోగించి ఎప్పుడు కావాలంటే అప్పుడు ఈ యాప్ ఫోటోలు తీయగలదు, వీడియోలు రికార్డ్ చేయగలదు.",
        "permdesc_cameraOpenCloseListener": "ఏదైనా కెమెరా పరికరం తెరుచుకుంటున్నప్పుడు (ఏదైనా యాప్ ద్వారా) లేదా మూసుకుంటున్నప్పుడు ఈ యాప్ కాల్‌బ్యాక్‌లను అందుకోగలదు.",
        "permdesc_changeNetworkState": "నెట్‌వర్క్ కనెక్టివిటీ యొక్క స్థితిని మార్చడానికి యాప్‌ను అనుమతిస్తుంది.",
        "permdesc_changeTetherState": "టీథర్ చేసిన నెట్‌వర్క్ కనెక్టివిటీ యొక్క స్థితిని మార్చడానికి యాప్‌ను అనుమతిస్తుంది.",
        "permdesc_changeWifiMulticastState": "మల్టీక్యాస్ట్ చిరునామాలను ఉపయోగించి మీ టాబ్లెట్‌కు మాత్రమే కాకుండా Wi-Fi నెట్‌వర్క్‌లోని అన్ని పరికరాలకు పంపబడిన ప్యాకెట్‌లను స్వీకరించడానికి యాప్‌ను అనుమతిస్తుంది. మల్టీక్యాస్ట్ యేతర మోడ్ కంటే ఇది ఎక్కువ పవర్ ఉపయోగిస్తుంది.",
        "permdesc_changeWifiState": "Wi-Fi యాక్సెస్ స్థానాలకు కనెక్ట్ చేయడానికి మరియు వాటి నుండి డిస్‌కనెక్ట్ చేయడానికి మరియు Wi-Fi నెట్‌వర్క్‌ల కోసం పరికర కాన్ఫిగరేషన్‌కు మార్పులు చేయడానికి యాప్‌ను అనుమతిస్తుంది.",
        "permdesc_changeWimaxState": "WiMAX నెట్‌వర్క్‌లకు టాబ్లెట్‌ను కనెక్ట్ చేయడానికి మరియు వాటి నుండి టాబ్లెట్‌ను డిస్‌కనెక్ట్ చేయడానికి అనువర్తనాన్ని అనుమతిస్తుంది.",
        "permdesc_connection_manager": "టెలికామ్ కనెక్షన్‌లను నిర్వహించడానికి అనువర్తనాన్ని అనుమతిస్తుంది.",
        "permdesc_control_incall_experience": "ఇన్-కాల్ వినియోగదారుని అనుభవాన్ని అందించడానికి అనువర్తనాన్ని అనుమతిస్తుంది.",
        "permdesc_createNetworkSockets": "నెట్‌వర్క్ సాకెట్‌లను సృష్టించడానికి మరియు అనుకూల నెట్‌వర్క్ ప్రోటోకాల్‌లను ఉపయోగించడానికి యాప్‌ను అనుమతిస్తుంది. బ్రౌజర్ మరియు ఇతర యాప్‌లు ఇంటర్నెట్‌కు డేటా పంపడానికి మార్గాలను అందిస్తాయి, కనుక ఇంటర్నెట్‌కు డేటా పంపడానికి ఈ అనుమతి అవసరం లేదు.",
        "permdesc_disableKeyguard": "కీలాక్ మరియు ఏదైనా అనుబంధించబడిన పాస్‌వర్డ్ భద్రతను నిలిపివేయడానికి యాప్‌ను అనుమతిస్తుంది. ఉదాహరణకు, ఇన్‌కమింగ్ ఫోన్ కాల్ వస్తున్నప్పుడు ఫోన్ కీలాక్‌ను నిలిపివేస్తుంది, ఆపై కాల్ ముగిసిన తర్వాత కీలాక్‌ను మళ్లీ ప్రారంభిస్తుంది.",
        "permdesc_enableCarMode": "కారు మోడ్‌ను ప్రారంభించడానికి యాప్‌ను అనుమతిస్తుంది.",
        "permdesc_exemptFromAudioRecordRestrictions": "ఆడియోను రికార్డ్ చేయడానికి యాప్‌ను పరిమితుల నుండి మినహాయించండి.",
        "permdesc_expandStatusBar": "స్థితి బార్‌ను విస్తరింపజేయడానికి లేదా కుదించడానికి యాప్‌ను అనుమతిస్తుంది.",
        "permdesc_foregroundService": "ముందు భాగంలో సేవలను ఉపయోగించడానికి యాప్‌ని అనుమతిస్తుంది.",
        "permdesc_fullScreenIntent": "లాక్ చేసి ఉన్న పరికరంలో నోటిఫికేషన్‌లను ఫుల్ స్క్రీన్ యాక్టివిటీలుగా డిస్‌ప్లే చేయడానికి యాప్‌ను అనుమతిస్తుంది",
        "permdesc_getAccounts": "టాబ్లెట్‌కు తెలిసిన ఖాతాల జాబితాను పొందడానికి యాప్‌ను అనుమతిస్తుంది. దీనిలో మీరు ఇన్‌స్టాల్ చేసిన యాప్‌ల ద్వారా సృష్టించబడిన ఖాతాలు ఏవైనా ఉండవచ్చు.",
        "permdesc_getPackageSize": "యాప్‌ కోడ్, డేటా మరియు కాష్ పరిమాణాలను తిరిగి పొందడానికి దాన్ని అనుమతిస్తుంది",
        "permdesc_getTasks": "ప్రస్తుతం మరియు ఇటీవల అమలవుతున్న విధుల గురించి వివరణాత్మక సమాచారాన్ని తిరిగి పొందడానికి యాప్‌ను అనుమతిస్తుంది. ఇది పరికరంలో ఉపయోగించబడిన యాప్‌ల గురించి సమాచారాన్ని కనుగొనడానికి యాప్‌ను అనుమతించవచ్చు.",
        "permdesc_handoverStatus": "ప్రస్తుత Android Beam బదిలీలకు సంబంధించిన సమాచారాన్ని స్వీకరించడానికి ఈ అనువర్తనాన్ని అనుమతిస్తుంది",
        "permdesc_highSamplingRateSensors": "200 Hz కంటే ఎక్కువ రేట్ వద్ద శాంపిల్ సెన్సార్ డేటాకు యాప్‌ను అనుమతిస్తుంది",
        "permdesc_imagesWrite": "మీ ఫోటో సేకరణను సవరించడానికి యాప్‌ను అనుమతిస్తుంది.",
        "permdesc_install_shortcut": "వినియోగదారు ప్రమేయం లేకుండానే హోమ్‌స్క్రీన్ సత్వరమార్గాలను జోడించడానికి అనువర్తనాన్ని అనుమతిస్తుంది.",
        "permdesc_invokeCarrierSetup": "క్యారియర్ అందించిన కాన్ఫిగరేషన్ అనువర్తనాన్ని అభ్యర్థించడానికి హోల్డర్‌ను అనుమతిస్తుంది. సాధారణ అనువర్తనాల కోసం ఎప్పటికీ అవసరం ఉండకూడదు.",
        "permdesc_killBackgroundProcesses": "ఇతర యాప్‌ల నేపథ్య ప్రాసెస్‌లను ముగించడానికి యాప్‌ను అనుమతిస్తుంది. దీని వలన ఇతర యాప్‌లు అమలు కాకుండా ఆపివేయబడవచ్చు.",
        "permdesc_manageFace": "వినియోగం కోసం ముఖ టెంప్లేట్‌లను జోడించే మరియు తొలగించే పద్ధతులను అమలు చేయడానికి యాప్‌ను అనుమతిస్తుంది.",
        "permdesc_manageFingerprint": "వినియోగం కోసం వేలిముద్ర టెంప్లేట్‌లను జోడించే, తొలగించే పద్ధతులను అమలు చేయడానికి యాప్‌ను అనుమతిస్తుంది.",
        "permdesc_manageNetworkPolicy": "నెట్‌వర్క్ విధానాలను నిర్వహించడానికి మరియు యాప్-నిర్దిష్ట నిబంధనలను నిర్వచించడానికి యాప్‌ను అనుమతిస్తుంది.",
        "permdesc_manageOngoingCalls": "మీ పరికరంలో కొనసాగుతున్న కాల్స్‌ను చూడటానికి అలాగే వాటిని కంట్రోల్ చేయడానికి ఒక యాప్‌కు అనుమతిస్తోంది.",
        "permdesc_manageOwnCalls": "కాలింగ్ అనుభవాన్ని మెరుగుపరచడం కోసం తన కాల్‌లను సిస్టమ్ ద్వారా వెళ్లేలా చేయడానికి అనువర్తనాన్ని అనుమతిస్తుంది.",
        "permdesc_manageProfileAndDeviceOwners": "ప్రొఫైల్ యజమానులను మరియు పరికరం యజమానిని సెట్ చేయడానికి అనువర్తనాలను అనుమతిస్తుంది.",
        "permdesc_mediaLocation": "మీ మీడియా సేకరణ నుండి స్థానాలను చదవడానికి యాప్‌ను అనుమతిస్తుంది.",
        "permdesc_modifyAudioSettings": "వాల్యూమ్ మరియు అవుట్‌పుట్ కోసం ఉపయోగించాల్సిన స్పీకర్ వంటి సార్వజనీన ఆడియో సెట్టింగ్‌లను సవరించడానికి యాప్‌ను అనుమతిస్తుంది.",
        "permdesc_modifyNetworkAccounting": "యాప్‌లలో నెట్‌వర్క్ వినియోగం ఎలా గణించాలనే దాన్ని సవరించడానికి యాప్‌ను అనుమతిస్తుంది. సాధారణ యాప్‌ల ద్వారా ఉపయోగించడానికి ఉద్దేశించినది కాదు.",
        "permdesc_nearby_wifi_devices": "అడ్వర్టయిజ్, కనెక్ట్ చేయడానికి, సమీపంలోని Wi-Fi పరికరాల సంబంధిత పొజిషన్‌ను నిర్ణయించడానికి యాప్‌ను అనుమతిస్తుంది",
        "permdesc_nfc": "సమీప ఫీల్డ్ కమ్యూనికేషన్ (NFC) ట్యాగ్‌లు, కార్డులు మరియు రీడర్‌లతో కమ్యూనికేట్ చేయడానికి యాప్‌ను అనుమతిస్తుంది.",
        "permdesc_persistentActivity": "యాప్‌, దాని భాగాలు మెమరీలో ఉండేలా చేయడానికి దానిని అనుమతిస్తుంది. ఇది ఇతర యాప్‌లకు అందుబాటులో ఉన్న మెమరీని ఆక్రమిస్తుంది, టాబ్లెట్ నెమ్మదిగా పని చేస్తుంది.",
        "permdesc_postNotification": "నోటిఫికేషన్‌లను చూపించడానికి యాప్‌ను అనుమతించండి",
        "permdesc_preferredPaymentInfo": "ప్రాధాన్యత ఇవ్వబడిన NFC చెల్లింపు సేవల సమాచారాన్ని, అంటే రిజిస్టర్ చేయబడిన సహాయక సాధనాలు, మార్గం, గమ్యస్థానం వంటి వాటిని పొందేందుకు యాప్‌ను అనుమతిస్తుంది.",
        "permdesc_processOutgoingCalls": "కాల్‌ను వేరే నంబర్‌కు దారి మళ్లించే లేదా మొత్తంగా కాల్‌ను ఆపివేసే ఎంపిక సహాయంతో అవుట్‌గోయింగ్ కాల్ సమయంలో డయల్ చేయబడుతున్న నంబర్‌ను చూడటానికి అనువర్తనాన్ని అనుమతిస్తుంది.",
        "permdesc_queryAllPackages": "ఇన్‌స్టాల్ చేసిన అన్ని ప్యాకేజీలను చూడటానికి యాప్‌ను అనుమతించండి.",
        "permdesc_readBasicPhoneState": "పరికరం తాలూకు ప్రాథమిక టెలిఫోన్ ఫీచర్‌లను యాక్సెస్ చేయడానికి యాప్‌ను అనుమతిస్తుంది.",
        "permdesc_readCalendar": "ఈ యాప్ మీ టాబ్లెట్‌లో నిల్వ చేసిన క్యాలెండర్ ఈవెంట్‌లన్నీ చదవగలదు మరియు మీ క్యాలెండర్ డేటాను షేర్ చేయగలదు లేదా సేవ్ చేయగలదు.",
        "permdesc_readCallLog": "ఈ యాప్‌ మీ కాల్ చరిత్రను చదవగలదు.",
        "permdesc_readCellBroadcasts": "మీ పరికరం స్వీకరించిన సెల్ ప్రసార సందేశాలను చదవడానికి యాప్‌ను అనుమతిస్తుంది. సెల్ ప్రసార హెచ్చరికలు అత్యవసర పరిస్థితుల గురించి మిమ్మల్ని హెచ్చరించడానికి కొన్ని స్థానాల్లో అందించబడతాయి. అత్యవసర సెల్ ప్రసారం స్వీకరించినప్పుడు హానికరమైన యాప్‌లు మీ పరికరం యొక్క పనితీరు లేదా నిర్వహణకు అంతరాయం కలిగించవచ్చు.",
        "permdesc_readContacts": "ఫోన్‌లో నిల్వ చేసిన మీ కాంటాక్ట్‌లకు సంబంధించిన డేటాను చదవడానికి యాప్‌ను అనుమతిస్తుంది. కాంటాక్ట్‌లను సృష్టించిన మీ ఫోన్‌లోని ఖాతాలను కూడా యాప్‌లు యాక్సెస్ చేయగలవు. ఇందులో మీరు ఇన్‌స్టాల్ చేసిన యాప్‌ల ద్వారా సృష్టించబడిన ఖాతాలు ఉండవచ్చు. ఈ అనుమతి, మీ కాంటాక్ట్ డేటాను సేవ్ చేయడానికి యాప్‌లను అనుమతిస్తుంది, హానికరమైన యాప్‌లు మీకు తెలియకుండానే కాంటాక్ట్ డేటాను షేర్ చేయవచ్చు.",
        "permdesc_readHistoryBookmarks": "బ్రౌజర్ సందర్శించిన అన్ని URLల చరిత్ర గురించి మరియు అన్ని బ్రౌజర్ బుక్‌మార్క్‌ల గురించి చదవడానికి యాప్‌ను అనుమతిస్తుంది. గమనిక: ఈ అనుమతి మూడవ పక్షం బ్రౌజర్‌లు లేదా వెబ్ బ్రౌజింగ్ సామర్థ్యాలు గల ఇతర యాప్‌ల ద్వారా అమలు చేయబడకపోవచ్చు.",
        "permdesc_readInstallSessions": "ఇన్‌స్టాల్ సెషన్‌లను చదవడానికి అనువర్తనాన్ని అనుమతిస్తుంది. ఇది సక్రియ ప్యాకేజీ ఇన్‌స్టాలేషన్‌ల గురించి వివరాలను చూడటానికి అనువర్తనాన్ని అనుమతిస్తుంది.",
        "permdesc_readMediaAudio": "మీ షేర్ చేయబడిన స్టోరేజ్ నుండి ఆడియో ఫైల్‌లను చదవడానికి యాప్‌ను అనుమతిస్తుంది.",
        "permdesc_readMediaImages": "మీ షేర్ చేయబడిన స్టోరేజ్ నుండి ఇమేజ్ ఫైల్‌లను చదవడానికి యాప్‌ను అనుమతిస్తుంది.",
        "permdesc_readMediaVideo": "మీ షేర్ చేయబడిన స్టోరేజ్ నుండి వీడియో ఫైల్‌లను చదవడానికి యాప్‌ను అనుమతిస్తుంది.",
        "permdesc_readNetworkUsageHistory": "నిర్దిష్ట నెట్‌వర్క్‌లు మరియు యాప్‌ల కోసం చారిత్రాత్మక నెట్‌వర్క్ వినియోగాన్ని చదవడానికి యాప్‌ను అనుమతిస్తుంది.",
        "permdesc_readPhoneNumbers": "పరికరం యొక్క ఫోన్ నంబర్‌లను యాక్సెస్ చేయడానికి యాప్‌ను అనుమతిస్తుంది.",
        "permdesc_readPhoneState": "పరికరం యొక్క ఫోన్ ఫీచర్‌లను యాక్సెస్ చేయడానికి యాప్‌ను అనుమతిస్తుంది. ఈ అనుమతి ఫోన్ నంబర్ మరియు పరికరం IDలను, కాల్ సక్రియంగా ఉందా లేదా అనే విషయాన్ని మరియు కాల్ ద్వారా కనెక్ట్ చేయబడిన రిమోట్ నంబర్‌ను కనుగొనడానికి యాప్‌ను అనుమతిస్తుంది.",
        "permdesc_readSms": "ఈ యాప్‌ మీ టాబ్లెట్‌లో నిల్వ చేసిన అన్ని SMS (వచన) సందేశాలను చదవగలదు.",
        "permdesc_readSyncSettings": "ఖాతా యొక్క సమకాలీకరణ సెట్టింగ్‌లను చదవడానికి యాప్‌ను అనుమతిస్తుంది. ఉదాహరణకు, వ్యక్తుల యాప్‌ ఖాతాతో సమకాలీకరించబడాలా లేదా అనే విషయాన్ని ఇది నిశ్చయించవచ్చు.",
        "permdesc_readSyncStats": "ఖాతా యొక్క సమకాలీకరణ గణాంకాలను అలాగే సమకాలీకరణ ఈవెంట్‌ల చరిత్రను మరియు ఎంత డేటా సమకాలీకరించబడింది అనేవాటిని చదవడానికి యాప్‌ను అనుమతిస్తుంది.",
        "permdesc_receiveBootCompleted": "సిస్టమ్ బూటింగ్‌ను పూర్తి చేసిన వెంటనే దానికదే ప్రారంభించబడటానికి యాప్‌ను అనుమతిస్తుంది. ఇది టాబ్లెట్‌ను ప్రారంభించడానికి ఎక్కువ సమయం పట్టేలా చేయవచ్చు మరియు ఎల్లప్పుడూ అమలు చేయడం ద్వారా మొత్తం టాబ్లెట్‌ను నెమ్మదిగా పని చేయడానికి యాప్‌ను అనుమతించేలా చేయవచ్చు.",
        "permdesc_receiveMms": "MMS సందేశాలను స్వీకరించడానికి మరియు ప్రాసెస్ చేయడానికి యాప్‌ను అనుమతిస్తుంది. యాప్ మీ డివైజ్‌కు పంపబడిన సందేశాలను మీకు చూపకుండానే పర్యవేక్షించగలదని లేదా తొలగించగలదని దీని అర్థం.",
        "permdesc_receiveSms": "SMS సందేశాలను స్వీకరించడానికి మరియు ప్రాసెస్ చేయడానికి యాప్‌ను అనుమతిస్తుంది. యాప్ మీ డివైజ్‌కు పంపబడిన సందేశాలను మీకు చూపకుండానే పర్యవేక్షించగలదని లేదా తొలగించగలదని దీని అర్థం.",
        "permdesc_receiveWapPush": "WAP సందేశాలను స్వీకరించడానికి మరియు ప్రాసెస్ చేయడానికి యాప్‌ను అనుమతిస్తుంది. ఈ అనుమతి మీకు పంపబడిన సందేశాలను మీకు చూపకుండానే పర్యవేక్షించగల లేదా తొలగించగల సామర్థ్యాన్ని కలిగి ఉంటుంది.",
        "permdesc_recordAudio": "యాప్ ఉపయోగంలో ఉన్నపుడు మైక్రోఫోన్‌ను ఉపయోగించి ఈ యాప్, ఆడియోను రికార్డ్ చేయగలదు.",
        "permdesc_recordBackgroundAudio": "మైక్రోఫోన్‌ను ఉపయోగించి ఈ యాప్ ఎప్పుడైనా ఆడియోను రికార్డ్ చేయగలదు.",
        "permdesc_register_call_provider": "కొత్త టెలికామ్ కనెక్షన్‌లను నమోదు చేయడానికి అనువర్తనాన్ని అనుమతిస్తుంది.",
        "permdesc_register_sim_subscription": "కొత్త టెలికామ్ SIM కనెక్షన్‌లను నమోదు చేయడానికి అనువర్తనాన్ని అనుమతిస్తుంది.",
        "permdesc_removeDrmCertificates": "DRM ప్రమాణపత్రాలను తీసివేయడానికి అనువర్తనాన్ని అనుమతిస్తుంది. సాధారణ అనువర్తనాలకు ఎప్పటికీ అవసరం ఉండదు.",
        "permdesc_reorderTasks": "విధులను ముందుకు మరియు నేపథ్యానికి తరలించడానికి యాప్‌ను అనుమతిస్తుంది. యాప్ మీ ప్రమేయం లేకుండానే దీన్ని చేయవచ్చు.",
        "permdesc_requestDeletePackages": "ప్యాకేజీల తొలగింపును అభ్యర్థించడానికి అనువర్తనాన్ని అనుమతిస్తుంది.",
        "permdesc_requestIgnoreBatteryOptimizations": "ఆ యాప్ కోసం బ్యాటరీ అనుకూలీకరణలు విస్మరించేలా అనుమతి కోరడానికి యాప్‌ను అనుమతిస్తుంది.",
        "permdesc_requestInstallPackages": "ప్యాకేజీల ఇన్‌స్టాలేషన్ అభ్యర్థించడానికి అనువర్తనాన్ని అనుమతిస్తుంది.",
        "permdesc_requestPasswordComplexity": "ఇది మీ స్క్రీన్ లాక్ పాస్‌వర్డ్‌ సంక్లిష్టత స్థాయి (తీవ్రంగా ఉండాలా, ఓ మోస్తరుగా ఉండాలా, తక్కువ తీవ్రంగా ఉండాలా లేదా అస్సలు తీవ్రత ఉండకూడదా) తెలుసుకోవడానికి యాప్‌ను అనుమతిస్తుంది, అంటే పొడుగు ఎంత ఉండాలి, ఏ రకమైన స్క్రీన్ లాక్ పధ్ధతి అనుసరించాలో సూచిస్తుంది. అలాగే, స్క్రీన్ లాక్‌ పాస్‌వర్డ్‌ సంక్లిష్టతను ఏ స్థాయికి సెట్ చేసుకుంటే బాగుంటుందో కూడా వినియోగదారులకు యాప్ సూచించగలదు, కానీ వినియోగదారులు నిరభ్యంతరంగా ఆ సూచనలను పట్టించుకోకుండా వారి ఇష్టం మేరకు చక్కగా సెట్ చేసుకోవచ్చు. ఇంకో ముఖ్య విషయం, స్క్రీన్ లాక్‌ అన్నది సాదా వచన రూపంలో నిల్వ చేయబడదు, కనుక ఖచ్చితమైన పాస్‌వర్డ్‌ ఏమిటనేది యాప్‌కు తెలియదు.",
        "permdesc_route_media_output": "మీడియా అవుట్‌పుట్‌ను ఇతర బాహ్య పరికరాలకు మళ్లించడానికి అనువర్తనాన్ని అనుమతిస్తుంది.",
        "permdesc_runInBackground": "ఈ యాప్ నేపథ్యంలో అమలు కావచ్చు. దీని వలన ఎక్కువ బ్యాటరీ శక్తి వినియోగం కావచ్చు.",
        "permdesc_sdcardRead": "మీ షేర్ చేసిన నిల్వ యొక్క కంటెంట్‌లను చదవడానికి యాప్‌ను అనుమతిస్తుంది.",
        "permdesc_sdcardWrite": "మీ షేర్ చేసిన నిల్వ యొక్క కంటెంట్‌లను రాయడానికి యాప్‌ను అనుమతిస్తుంది.",
        "permdesc_sendSms": "SMS సందేశాలు పంపడానికి యాప్‌ను అనుమతిస్తుంది. దీని వలన ఊహించని ఛార్జీలు విధించబడవచ్చు. హానికరమైన యాప్‌లు మీ నిర్ధారణ లేకుండానే సందేశాలను పంపడం ద్వారా మీకు డబ్బు ఖర్చయ్యేలా చేయవచ్చు.",
        "permdesc_setAlarm": "ఇన్‌స్టాల్ చేయబడిన అలారం గడియారం యాప్‌లో అలారంను సెట్ చేయడానికి యాప్‌ను అనుమతిస్తుంది. కొన్ని అలారం గల గడియారం యాప్‌లు ఈ ఫీచర్‌ను అమలు చేయకపోవచ్చు.",
        "permdesc_setInputCalibration": "టచ్ స్క్రీన్ యొక్క క్రమాంకన పరామితులను సవరించడానికి అనువర్తనాన్ని అనుమతిస్తుంది. సాధారణ అనువర్తనాలకు ఎప్పటికీ అవసరం ఉండదు.",
        "permdesc_setTimeZone": "టాబ్లెట్ యొక్క సమయ మండలిని మార్చడానికి యాప్‌ను అనుమతిస్తుంది.",
        "permdesc_setWallpaper": "సిస్టమ్ వాల్‌పేపర్‌ను సెట్ చేయడానికి యాప్‌ను అనుమతిస్తుంది.",
        "permdesc_setWallpaperHints": "సిస్టమ్ వాల్‌పేపర్ పరిమాణం సూచనలను సెట్ చేయడానికి యాప్‌ను అనుమతిస్తుంది.",
        "permdesc_sim_communication": "సిమ్‌కు ఆదేశాలను పంపడానికి అనువర్తనాన్ని అనుమతిస్తుంది. ఇది చాలా ప్రమాదకరం.",
        "permdesc_startReviewPermissionDecisions": "అనుమతి నిర్ణయాలను రివ్యూ చేయడానికి స్క్రీన్‌ను ప్రారంభించడానికి హోల్డర్‌ను అనుమతిస్తుంది. సాధారణ యాప్‌లకు ఎప్పటికీ అవసరం ఉండదు.",
        "permdesc_startViewAppFeatures": "యాప్ ఫీచర్‌ల సమాచారాన్ని చూడటాన్ని ప్రారంభించడానికి హోల్డర్‌ను అనుమతిస్తుంది.",
        "permdesc_startViewPermissionUsage": "యాప్‌నకు అనుమతి వినియోగాన్ని ప్రారంభించడానికి హోల్డర్‌‌ను అనుమతిస్తుంది. సాధారణ యాప్‌లకు ఎప్పటికీ ఇటువంటి అనుమతి అవసరం ఉండదు.",
        "permdesc_statusBar": "స్థితి బార్‌ను నిలిపివేయడానికి లేదా సిస్టమ్ చిహ్నాలను జోడించడానికి మరియు తీసివేయడానికి యాప్‌ను అనుమతిస్తుంది.",
        "permdesc_statusBarService": "స్థితి బార్‌ ఉండేలా చేయడానికి యాప్‌ను అనుమతిస్తుంది.",
        "permdesc_subscribedFeedsRead": "ప్రస్తుతం సమకాలీకరించిన ఫీడ్‌ల గురించి వివరాలను పొందడానికి యాప్‌ను అనుమతిస్తుంది.",
        "permdesc_systemAlertWindow": "ఈ యాప్ ఇతర యాప్‌ల పైభాగాన లేదా స్క్రీన్ యొక్క ఇతర భాగాలపైన కనిపించగలదు. ఇది సాధారణ యాప్ వినియోగానికి అంతరాయం కలిగించవచ్చు మరియు ఆ ఇతర యాప్‌లు కనిపించే విధానాన్ని మార్చవచ్చు.",
        "permdesc_systemCamera": "ఈ విశేష లేదా సిస్టమ్ యాప్ ఎప్పుడైనా సిస్టమ్ కెమెరాను ఉపయోగించి ఫోటోలు తీయగలదు, వీడియోలను రికార్డ్ చేయగలదు. యాప్‌కు android.permission.CAMERA అనుమతి ఇవ్వడం కూడా అవసరం",
        "permdesc_transmitIr": "టాబ్లెట్ యొక్క ఇన్‌ఫ్రారెడ్ ట్రాన్స్‌మిటర్‌ను ఉపయోగించడానికి అనువర్తనాన్ని అనుమతిస్తుంది.",
        "permdesc_uninstall_shortcut": "వినియోగదారు ప్రమేయం లేకుండానే హోమ్‌స్క్రీన్ సత్వరమార్గాలను తీసివేయడానికి అనువర్తనాన్ని అనుమతిస్తుంది.",
        "permdesc_useBiometric": "ప్రమాణీకరణ కోసం బయోమెట్రిక్ హార్డ్‌వేర్‌ను ఉపయోగించడానికి యాప్‌ని అనుమతిస్తుంది",
        "permdesc_useDataInBackground": "ఈ యాప్ నేపథ్యంలో డేటాను ఉపయోగించవచ్చు. దీని వలన డేటా వినియోగం అధికం కావచ్చు.",
        "permdesc_useFaceAuthentication": "ప్రమాణీకరణ కోసం ముఖంతో అన్‌లాక్ చేయగల హార్డ్‌వేర్‌ను ఉపయోగించడానికి యాప్‌ను అనుమతిస్తుంది",
        "permdesc_useFingerprint": "ప్రామాణీకరణ కోసం వేలిముద్ర హార్డ్‌వేర్‌ను ఉపయోగించడానికి యాప్‌ను అనుమతిస్తుంది",
        "permdesc_use_sip": "SIP కాల్‌లను చేయడానికి మరియు స్వీకరించడానికి అనువర్తనాన్ని అనుమతిస్తుంది.",
        "permdesc_uwb_ranging": "సమీపంలోని అల్ట్రా-వైడ్‌బ్యాండ్ పరికరాల మధ్య సాపేక్ష స్థానాన్ని నిర్ణయించడానికి యాప్‌ను అనుమతించండి",
        "permdesc_vibrate": "వైబ్రేటర్‌ను నియంత్రించడానికి యాప్‌ను అనుమతిస్తుంది.",
        "permdesc_vibrator_state": "వైబ్రేటర్ స్థితిని యాక్సెస్ చేసేందుకు యాప్‌ను అనుమతిస్తుంది.",
        "permdesc_videoWrite": "మీ వీడియో సేకరణను సవరించడానికి యాప్‌ని అనుమతిస్తుంది.",
        "permdesc_wakeLock": "కార్ స్క్రీన్ ఆన్ చేసి ఉంచడానికి ఈ యాప్‌ను అనుమతిస్తుంది.",
        "permdesc_writeCalendar": "ఈ యాప్ మీ టాబ్లెట్‌లో క్యాలెండర్ ఈవెంట్‌లను జోడించగలదు, తీసివేయగలదు లేదా మార్చగలదు. ఈ యాప్ క్యాలెండర్ యజమానుల నుండి వచ్చినట్లుగా సందేశాలను పంపగలదు లేదా ఈవెంట్‌లను వాటి యజమానులకు తెలియకుండానే మార్చగలదు.",
        "permdesc_writeCallLog": "ఇన్‌కమింగ్ మరియు అవుట్‌గోయింగ్ కాల్‌ల గురించిన డేటాతో సహా మీ టాబ్లెట్ యొక్క కాల్ లాగ్‌ను సవరించడానికి యాప్‌ను అనుమతిస్తుంది. హానికరమైన యాప్‌లు మీ కాల్ లాగ్‌ను ఎరేజ్ చేయడానికి లేదా సవరించడానికి దీన్ని ఉపయోగించవచ్చు.",
        "permdesc_writeContacts": "మీ ఫోన్‌లో నిల్వ చేసి ఉన్న కాంటాక్ట్‌లకు సంబంధించిన డేటాను సవరించడానికి యాప్‌ను అనుమతిస్తుంది. ఈ అనుమతి, కాంటాక్ట్ డేటాను తొలగించడానికి యాప్‌లను అనుమతిస్తుంది.",
        "permdesc_writeGeolocationPermissions": "బ్రౌజర్ యొక్క భౌగోళిక స్థానం అనుమతులను సవరించడానికి యాప్‌ను అనుమతిస్తుంది. హానికరమైన యాప్‌లు ఏకపక్ష వెబ్ సైట్‌లకు స్థాన సమాచారాన్ని అనుమతించడానికి దీన్ని ఉపయోగించవచ్చు.",
        "permdesc_writeHistoryBookmarks": "మీ టాబ్లెట్‌లో నిల్వ చేయబడిన బ్రౌజర్ చరిత్రను లేదా బుక్‌మార్క్‌లను సవరించడానికి యాప్‌ను అనుమతిస్తుంది. ఇది బ్రౌజర్ డేటాను ఎరేజ్ చేయడానికి లేదా సవరించడానికి యాప్‌ను అనుమతించవచ్చు. గమనిక: ఈ అనుమతి మూడవ పక్షం బ్రౌజర్‌లు లేదా వెబ్ బ్రౌజింగ్ సామర్థ్యాలు గల ఇతర యాప్‌ల ద్వారా అమలు చేయబడకపోవచ్చు.",
        "permdesc_writeSettings": "సిస్టమ్ యొక్క సెట్టింగ్‌ల డేటాను సవరించడానికి అనువర్తనాన్ని అనుమతిస్తుంది. హానికరమైన యాప్‌లు మీ సిస్టమ్ యొక్క కాన్ఫిగరేషన్‌ను నాశనం చేయవచ్చు.",
        "permdesc_writeSyncSettings": "ఖాతా యొక్క సమకాలీకరణ సెట్టింగ్‌లను సవరించడానికి యాప్‌ను అనుమతిస్తుంది. ఉదాహరణకు, ఇది ఒక ఖాతాతో వ్యక్తుల యాప్ యొక్క సమకాలీకరణను ప్రారంభించడానికి ఉపయోగించబడవచ్చు.",
        "permgroupdesc_activityRecognition": "భౌతిక కార్యకలాపాన్ని యాక్సెస్ చేయండి",
        "permgroupdesc_calendar": "మీ క్యాలెండర్‌ను యాక్సెస్ చేయడానికి",
        "permgroupdesc_calllog": "ఫోన్ కాల్ లాగ్‌ని చదవండి మరియు రాయండి",
        "permgroupdesc_camera": "చిత్రాలను తీయడానికి మరియు వీడియోను రికార్డ్ చేయడానికి",
        "permgroupdesc_contacts": "మీ పరిచయాలను యాక్సెస్ చేయడానికి",
        "permgroupdesc_location": "ఈ పరికర స్థానాన్ని యాక్సెస్ చేయడానికి",
        "permgroupdesc_microphone": "ఆడియోను రికార్డ్ చేయడానికి",
        "permgroupdesc_nearby_devices": "సమీప పరికరాలను కనుగొనండి అలాగే కనెక్ట్ చేయండి",
        "permgroupdesc_notifications": "నోటిఫికేషన్‌లను చూపండి",
        "permgroupdesc_phone": "ఫోన్ కాల్‌లు చేయడం మరియు నిర్వహించడం",
        "permgroupdesc_readMediaAural": "మీ పరికరంలో మ్యూజిక్, ఆడియోను యాక్సెస్ చేయండి",
        "permgroupdesc_readMediaVisual": "మీ పరికరంలో ఫోటోలు, వీడియోలను యాక్సెస్ చేయండి",
        "permgroupdesc_sensors": "మీ అత్యంత కీలకమైన గుర్తుల గురించి సెన్సార్ డేటాని యాక్సెస్ చేస్తుంది",
        "permgroupdesc_sms": "SMS సందేశాలను పంపడం మరియు వీక్షించడం",
        "permgroupdesc_storage": "మీ పరికరంలోని ఫోటోలు, మీడియా మరియు ఫైల్‌లను యాక్సెస్ చేయడానికి",
        "permgrouplab_activityRecognition": "భౌతిక కార్యకలాపం",
        "permgrouplab_calendar": "Calendar",
        "permgrouplab_calllog": "కాల్ లాగ్‌లు",
        "permgrouplab_camera": "కెమెరా",
        "permgrouplab_contacts": "కాంటాక్ట్‌లు",
        "permgrouplab_location": "లొకేషన్",
        "permgrouplab_microphone": "మైక్రోఫోన్",
        "permgrouplab_nearby_devices": "సమీపంలోని పరికరాలు",
        "permgrouplab_notifications": "నోటిఫికేషన్‌లు",
        "permgrouplab_phone": "ఫోన్",
        "permgrouplab_readMediaAural": "మ్యూజిక్, ఆడియో",
        "permgrouplab_readMediaVisual": "ఫోటోలు, వీడియోలు",
        "permgrouplab_sensors": "శరీర సెన్సార్‌లు",
        "permgrouplab_sms": "SMS",
        "permgrouplab_storage": "ఫైల్స్",
        "permlab_acceptHandover": "మరో యాప్ నుండి కాల్‌ని కొనసాగించండి",
        "permlab_accessBackgroundLocation": "నేపథ్యంలో స్థానాన్ని యాక్సెస్ చేయి",
        "permlab_accessCoarseLocation": "స్క్రీన్‌పై ఉన్నప్పుడు మాత్రమే సుమారు లొకేషన్‌ను యాక్సెస్ చేయండి",
        "permlab_accessDrmCertificates": "DRM ప్రమాణపత్రాలను యాక్సెస్ చేయడం",
        "permlab_accessFineLocation": "స్క్రీన్‌పై ఉన్నప్పుడు మాత్రమే ఖచ్చితమైన స్థానాన్ని యాక్సెస్ చేయండి",
        "permlab_accessImsCallService": "IMS కాల్ సేవ యాక్సెస్ అనుమతి",
        "permlab_accessLocationExtraCommands": "అదనపు స్థాన ప్రదాత ఆదేశాలను యాక్సెస్ చేయడం",
        "permlab_accessNetworkConditions": "నెట్‌వర్క్ పరిస్థితులపై పరిశీలనల గురించి తెలుసుకోవడం",
        "permlab_accessNetworkState": "నెట్‌వర్క్ కనెక్షన్‌లను వీక్షించడం",
        "permlab_accessNotifications": "నోటిఫికేషన్‌లను యాక్సెస్ చేయడం",
        "permlab_accessWifiState": "Wi-Fi కనెక్షన్‌లను వీక్షించడం",
        "permlab_accessWimaxState": "WiMAXకు కనెక్ట్ చేయడం మరియు దాని నుండి డిస్‌కనెక్ట్ చేయడం",
        "permlab_access_notification_policy": "అంతరాయం కలిగించవద్దును యాక్సెస్ చేయడం",
        "permlab_activityRecognition": "భౌతిక కార్యాకలాపాన్ని గుర్తించండి",
        "permlab_addVoicemail": "వాయిస్ మెయిల్‌ను జోడించడం",
        "permlab_answerPhoneCalls": "ఫోన్ కాల్‌లకు సమాధానమివ్వు",
        "permlab_audioWrite": "మీ సంగీత సేకరణను సవరించండి",
        "permlab_backgroundCamera": "బ్యాక్‌గ్రౌండ్‌లో ఫోటోలు, వీడియోలను తీయగలదు",
        "permlab_bindCarrierMessagingService": "క్యారియర్ సందేశ సేవకు అనుబంధించడం",
        "permlab_bindCarrierServices": "క్యారియర్ సేవలకు అనుబంధించడం",
        "permlab_bindCellBroadcastService": "సెల్ ప్రసార సందేశాలను ఫార్వర్డ్ చేయడం",
        "permlab_bindConditionProviderService": "షరతు ప్రదాత సేవకు అనుబంధించడం",
        "permlab_bindDreamService": "డ్రీమ్ సేవ‌కి అనుబంధించడం",
        "permlab_bindNotificationListenerService": "నోటిఫికేషన్ పరిశీలన సేవకు అనుబంధించడం",
        "permlab_bind_connection_service": "టెలిఫోన్ సేవలతో పరస్పర చర్య చేయడం",
        "permlab_bind_incall_service": "ఇన్-కాల్ స్క్రీన్‌తో పరస్పర చర్య చేయడం",
        "permlab_bluetooth": "బ్లూటూత్ పరికరాలతో జత చేయడం",
        "permlab_bluetoothAdmin": "బ్లూటూత్ సెట్టింగ్‌లను యాక్సెస్ చేయడం",
        "permlab_bluetooth_advertise": "సమీపంలోని బ్లూటూత్ పరికరాలలో అడ్వర్టయిజ్ చేయండి",
        "permlab_bluetooth_connect": "పెయిర్ చేసిన బ్లూటూత్ పరికరాలకు కనెక్ట్ అవ్వండి",
        "permlab_bluetooth_scan": "సమీపంలోని బ్లూటూత్ పరికరాలను కనుగొని పెయిర్ చేయండి",
        "permlab_bodySensors": "శరీర సెన్సార్‌లను (గుండె స్పందన రేటు మానిటర్‌ల వంటివి) యాక్సెస్ చేయండి",
        "permlab_bodySensors_background": "బ్యాక్‌గ్రౌండ్‌లో గుండె స్పందన రేటు వంటి శరీర సెన్సార్ డేటాను యాక్సెస్ చేయండి",
        "permlab_broadcastSticky": "స్టిక్కీ ప్రసారాన్ని పంపడం",
        "permlab_callCompanionApp": "సిస్టమ్ ద్వారా కాల్‌లను చూసి, నియంత్రించండి.",
        "permlab_callPhone": "నేరుగా కాల్ చేసే ఫోన్ నంబర్‌లు",
        "permlab_camera": "చిత్రాలు మరియు వీడియోలు తీయడం",
        "permlab_cameraOpenCloseListener": "కెమెరా పరికరాలు తెరుచుకుంటున్నప్పుడు లేదా మూసుకుంటున్నప్పుడు కాల్‌బ్యాక్‌లను స్వీకరించడానికి యాప్‌ను లేదా సర్వీస్‌ను అనుమతించండి.",
        "permlab_changeNetworkState": "నెట్‌వర్క్ కనెక్టివిటీని మార్చడం",
        "permlab_changeTetherState": "టీథర్ చేయబడిన కనెక్టివిటీని మార్చడం",
        "permlab_changeWifiMulticastState": "Wi-Fi Multicast స్వీకరణను అనుమతించడం",
        "permlab_changeWifiState": "Wi-Fiకి కనెక్ట్ చేయడం మరియు దాని నుండి డిస్‌కనెక్ట్ చేయడం",
        "permlab_changeWimaxState": "WiMAX స్థితిని మార్చడం",
        "permlab_connection_manager": "టెలికామ్ కనెక్షన్‌లను నిర్వహించడం",
        "permlab_control_incall_experience": "ఇన్-కాల్ వినియోగదారు అనుభవాన్ని అందించడం",
        "permlab_createNetworkSockets": "నెట్‌వర్క్‌ను పూర్తిగా యాక్సెస్ చేయగలగడం",
        "permlab_disableKeyguard": "మీ స్క్రీన్ లాక్‌ను నిలిపివేయడం",
        "permlab_enableCarMode": "కారు మోడ్‌ను ప్రారంభించడం",
        "permlab_exemptFromAudioRecordRestrictions": "ఆడియో రికార్డ్ పరిమితుల నుండి మినహాయింపు",
        "permlab_expandStatusBar": "స్థితి పట్టీని విస్తరింపజేయడం/కుదించడం",
        "permlab_foregroundService": "సేవని ముందు భాగంలో అమలు చేయడం",
        "permlab_fullScreenIntent": "లాక్ చేసి ఉన్న పరికరంలో నోటిఫికేషన్‌లను ఫుల్ స్క్రీన్ యాక్టివిటీలుగా డిస్‌ప్లే చేస్తుంది",
        "permlab_getAccounts": "పరికరంలో ఖాతాలను కనుగొనడం",
        "permlab_getPackageSize": "యాప్ నిల్వ స్థలాన్ని అంచనా వేయడం",
        "permlab_getTasks": "అమలవుతున్న అనువర్తనాలను పునరుద్ధరించడం",
        "permlab_handoverStatus": "Android Beam బదిలీ స్థితిని స్వీకరించడం",
        "permlab_highSamplingRateSensors": "అధిక శాంపిల్ రేటు వద్ద సెన్సార్ డేటాను యాక్సెస్ చేయండి",
        "permlab_imagesWrite": "మీ ఫోటో సేకరణను సవరించండి",
        "permlab_install_shortcut": "షార్ట్‌కట్‌లను ఇన్‌స్టాల్ చేయడం",
        "permlab_invokeCarrierSetup": "క్యారియర్ అందించిన కాన్ఫిగరేషన్ అనువర్తనాన్ని అభ్యర్థించడం",
        "permlab_killBackgroundProcesses": "ఇతర అనువర్తనాలను మూసివేయడం",
        "permlab_manageFace": "ముఖంతో అన్‌లాక్ చేయగల హార్డ్‌వేర్ నిర్వహణ",
        "permlab_manageFingerprint": "వేలిముద్ర హార్డ్‌వేర్‌ని నిర్వహించడానికి అనుమతి",
        "permlab_manageNetworkPolicy": "నెట్‌వర్క్ విధానాన్ని నిర్వహించడం",
        "permlab_manageOngoingCalls": "కొనసాగుతున్న కాల్స్‌ను మేనేజ్ చేయండి",
        "permlab_manageOwnCalls": "కాల్‌లను సిస్టమ్ ద్వారా వెళ్లేలా చేయి",
        "permlab_manageProfileAndDeviceOwners": "ప్రొఫైల్ మరియు పరికర యజమానులను నిర్వహించడం",
        "permlab_mediaLocation": "మీ మీడియా సేకరణ నుండి స్థానాలను చదవండి",
        "permlab_modifyAudioSettings": "మీ ఆడియో సెట్టింగ్‌లను మార్చడం",
        "permlab_modifyNetworkAccounting": "నెట్‌వర్క్ వినియోగ అకౌంటింగ్‌ను సవరించడం",
        "permlab_nearby_wifi_devices": "సమీపంలోని Wi-Fi పరికరాలతో ఇంటరాక్ట్ చేస్తుంది",
        "permlab_nfc": "సమీప క్షేత్ర కమ్యూనికేషన్‌ను నియంత్రించడం",
        "permlab_persistentActivity": "యాప్‌ను ఎల్లప్పుడూ అమలు చేయడం",
        "permlab_postNotification": "నోటిఫికేషన్‌లను చూపండి",
        "permlab_preferredPaymentInfo": "ప్రాధాన్యత ఇవ్వబడిన NFC చెల్లింపు సేవల సమాచారం",
        "permlab_processOutgoingCalls": "అవుట్‌గోయింగ్ కాల్‌లను దారి మళ్లించడం",
        "permlab_queryAllPackages": "అన్ని ప్యాకేజీలను క్వెరీ చేయండి",
        "permlab_readBasicPhoneState": "ప్రాథమిక టెలిఫోన్ స్టేటస్, గుర్తింపును చదవండి",
        "permlab_readCalendar": "క్యాలెండర్ ఈవెంట్‌లు మరియు వివరాలను చదవడం",
        "permlab_readCallLog": "కాల్ లాగ్‌ను చదవడం",
        "permlab_readCellBroadcasts": "సెల్ ప్రసార సందేశాలను చదవడం",
        "permlab_readContacts": "మీ పరిచయాలను చదవడం",
        "permlab_readHistoryBookmarks": "మీ వెబ్ బుక్‌మార్క్‌లు మరియు చరిత్రను చదవడం",
        "permlab_readInstallSessions": "ఇన్‌స్టాల్ సెషన్‌లను చదవడం",
        "permlab_readMediaAudio": "షేర్ చేయబడిన స్టోరేజ్ నుండి ఆడియో ఫైల్‌లను చదవండి",
        "permlab_readMediaImages": "షేర్ చేయబడిన స్టోరేజ్ నుండి ఇమేజ్ ఫైల్‌లను చదవండి",
        "permlab_readMediaVideo": "షేర్ చేయబడిన స్టోరేజ్ నుండి వీడియో ఫైల్‌లను చదవండి",
        "permlab_readNetworkUsageHistory": "చారిత్రక నెట్‌వర్క్ వినియోగాన్ని చదవడం",
        "permlab_readPhoneNumbers": "ఫోన్ నంబర్‌లను చదువు",
        "permlab_readPhoneState": "ఫోన్ స్థితి మరియు గుర్తింపుని చదవడం",
        "permlab_readSms": "మీ వచన సందేశాలు (SMS లేదా MMS) చదవడం",
        "permlab_readSyncSettings": "సింక్ సెట్టింగ్‌లను చదవగలగడం",
        "permlab_readSyncStats": "సింక్ గణాంకాలను చదవగలగడం",
        "permlab_receiveBootCompleted": "ప్రారంభంలో అమలు చేయడం",
        "permlab_receiveMms": "వచన సందేశాలను (MMS) స్వీకరించడం",
        "permlab_receiveSms": "వచన సందేశాలను (SMS) స్వీకరించడం",
        "permlab_receiveWapPush": "వచన సందేశాలను (WAP) స్వీకరించడం",
        "permlab_recordAudio": "ఆడియోను రికార్డ్ చేయడం",
        "permlab_recordBackgroundAudio": "బ్యాక్‌గ్రౌండ్‌లో ఆడియోను రికార్డ్ చేయగలదు",
        "permlab_register_call_provider": "కొత్త టెలికామ్ కనెక్షన్‌లను నమోదు చేయడం",
        "permlab_register_sim_subscription": "కొత్త టెలికామ్ SIM కనెక్షన్‌లను నమోదు చేయడం",
        "permlab_removeDrmCertificates": "DRM ప్రమాణపత్రాలను తీసివేయడం",
        "permlab_reorderTasks": "అమలవుతోన్న యాప్‌లను మళ్లీ క్రమం చేయడం",
        "permlab_requestDeletePackages": "ప్యాకేజీలను తొలగించడానికి అభ్యర్థించు",
        "permlab_requestIgnoreBatteryOptimizations": "బ్యాటరీ అనుకూలీకరణలను విస్మరించడానికి అడగాలి",
        "permlab_requestInstallPackages": "ఇన్‌స్టాల్ ప్యాకేజీలను అభ్యర్థించడం",
        "permlab_requestPasswordComplexity": "స్క్రీన్ లాక్ సంక్లిష్టత అభ్యర్థన",
        "permlab_route_media_output": "మీడియా అవుట్‌పుట్‌ను మళ్లించడం",
        "permlab_runInBackground": "నేపథ్యంలో అమలు చేయండి",
        "permlab_sdcardRead": "మీ షేర్ చేసిన నిల్వ యొక్క కంటెంట్‌లను చదువుతుంది",
        "permlab_sdcardWrite": "మీ షేర్ చేసిన నిల్వ యొక్క కంటెంట్‌లను సవరించండి లేదా తొలగించండి",
        "permlab_sendSms": "SMS సందేశాలను పంపడం మరియు వీక్షించడం",
        "permlab_setAlarm": "అలారం సెట్ చేయడం",
        "permlab_setInputCalibration": "ఇన్‌పుట్ పరికరం క్రమాంకనాన్ని మార్చండి",
        "permlab_setTimeZone": "సమయ మండలిని సెట్ చేయడం",
        "permlab_setWallpaper": "వాల్‌పేపర్‌ను సెట్ చేయడం",
        "permlab_setWallpaperHints": "మీ వాల్‌పేపర్ పరిమాణాన్ని సర్దుబాటు చేయడం",
        "permlab_sim_communication": "SIMకి ఆదేశాలను పంపడం",
        "permlab_startReviewPermissionDecisions": "వీక్షణ అనుమతి నిర్ణయాలను ప్రారంభించండి",
        "permlab_startViewAppFeatures": "యాప్ ఫీచర్‌లను చూడటాన్ని ప్రారంభించండి",
        "permlab_startViewPermissionUsage": "వీక్షణ అనుమతి వినియోగాన్ని ప్రారంభించండి",
        "permlab_statusBar": "స్థితి బార్‌ను నిలిపివేయడం లేదా సవరించడం",
        "permlab_statusBarService": "స్థితి పట్టీగా ఉండటం",
        "permlab_subscribedFeedsRead": "చందా చేయబడిన ఫీడ్‌లను చదవడం",
        "permlab_systemAlertWindow": "ఈ యాప్ ఇతర యాప్‌ల పైభాగాన కనిపించగలదు",
        "permlab_systemCamera": "ఫోటోలు, వీడియోలు తీయడానికి సిస్టమ్ కెమెరాలకు యాప్, లేదా సేవా యాక్సెస్‌ను అనుమతించండి",
        "permlab_transmitIr": "ఇన్‌ఫ్రారెడ్ ప్రసరణ",
        "permlab_uninstall_shortcut": "సత్వరమార్గాలను అన్ఇన్‌స్టాల్ చేయడం",
        "permlab_useBiometric": "బయోమెట్రిక్ హార్డ్‌వేర్‌ని ఉపయోగించు",
        "permlab_useDataInBackground": "నేపథ్యంలో డేటాను ఉపయోగించండి",
        "permlab_useFaceAuthentication": "ముఖంతో అన్‌లాక్ చేయగల హార్డ్‌వేర్ వినియోగం",
        "permlab_useFingerprint": "వేలిముద్ర హార్డ్‌వేర్‌ని ఉపయోగించడానికి అనుమతి",
        "permlab_use_sip": "SIP కాల్‌లను చేయడానికి/స్వీకరించడానికి",
        "permlab_uwb_ranging": "సమీపంలోని అల్ట్రా-వైడ్‌బ్యాండ్ పరికరాల మధ్య సాపేక్ష స్థానాన్ని నిర్ణయించండి",
        "permlab_vibrate": "వైబ్రేషన్‌ను నియంత్రించడం",
        "permlab_videoWrite": "మీ వీడియో సేకరణను సవరించండి",
        "permlab_wakeLock": "కార్ స్క్రీన్‌ను ఆన్ చేసి ఉంచండి",
        "permlab_writeCalendar": "యజమానికి తెలియకుండానే క్యాలెండర్ ఈవెంట్‌లను జోడించి లేదా సవరించి, అతిథులకు ఇమెయిల్ పంపడం",
        "permlab_writeCallLog": "కాల్ లాగ్‌ను వ్రాయడం",
        "permlab_writeContacts": "మీ పరిచయాలను సవరించడం",
        "permlab_writeGeolocationPermissions": "బ్రౌజర్ భౌగోళిక స్థానం అనుమతులను సవరించడం",
        "permlab_writeHistoryBookmarks": "వెబ్ బుక్‌మార్క్‌లు మరియు చరిత్రను వ్రాయడం",
        "permlab_writeSettings": "సిస్టమ్ సెట్టింగ్‌లను మార్చడం",
        "permlab_writeSyncSettings": "'సింక్'ను ఆన్, ఆఫ్‌ల మధ్య టోగుల్ చేయడం"
    }
}
