{
    "antifeatures": {
        "Ads": "இச்செயலியில் விளம்பரங்கள் உள்ளன",
        "DisabledAlgorithm": "இந்த பயன்பாட்டில் பலவீனமான பாதுகாப்பு கையொப்பம் உள்ளது",
        "KnownVuln": "இந்த பயன்பாட்டில் அறியப்பட்ட பாதுகாப்பு பாதிப்பு உள்ளது",
        "NSFW": "எங்கும் தெரியக்கூடாத உள்ளடக்கத்தை இச்செயலி கொண்டுள்ளது",
        "NoSourceSince": "மூல குறியீடு இனி கிடைக்காது, புதுப்பிப்புகள் எதுவும் சாத்தியமில்லை",
        "NonFreeAdd": "இந்த பயன்பாடு இலவசமற்ற துணை நிரல்களை ஊக்குவிக்கிறது",
        "NonFreeAssets": "இந்த பயன்பாட்டில் இலவசமற்ற சொத்துக்கள் உள்ளன",
        "NonFreeDep": "இந்த பயன்பாடு பிற இலவசமற்ற பயன்பாடுகளைப் பொறுத்தது",
        "NonFreeNet": "இந்த பயன்பாடு இலவசமற்ற பிணைய சேவைகளை ஊக்குவிக்கிறது",
        "Tracking": "இந்த பயன்பாடு உங்கள் செயல்பாட்டைக் கண்காணித்து அறிக்கையிடுகிறது",
        "UpstreamNonFree": "அப்ஸ்ட்ரீம் மூல குறியீடு முற்றிலும் இலவசம் அல்ல (The upstream source code is not entirely Free)"
    },
    "app_categories": {
        "Connectivity": "இணைப்பு",
        "Development": "வளர்ச்சி",
        "Games": "விளையாட்டுகள்",
        "Graphics": "வரைகலை",
        "Internet": "இணையம்",
        "Money": "பணம்",
        "Multimedia": "மல்டிமீடியா",
        "Navigation": "வழிசெலுத்தல்",
        "Phone & SMS": "தொலைபேசி &amp; குறுஞ்செய்திச் சேவை",
        "Reading": "படித்தல்",
        "Science & Education": "அறிவியல் மற்றும் கல்வி",
        "Security": "பாதுகாப்பு",
        "Sports & Health": "விளையாட்டு மற்றும் ஆரோக்கியம்",
        "System": "அமைப்பு",
        "Theming": "கருப்பொருள்",
        "Time": "நேரம்",
        "Writing": "எழுதுதல்",
        "show_all_packages": "அனைத்து %d தொகுப்புகளையும் காண்பி"
    },
    "index": {
        "download_fdroid": "எஃப்-ட்ராய்டு பதிவிறக்கு",
        "gpg_signature": "PGP கையொப்பம்",
        "introduction": "F-Droid என்பது Android இயங்குதளத்திற்கான FOSS (இலவச மற்றும் திறந்த மூல மென்பொருள்) பயன்பாடுகளின் நிறுவக்கூடிய பட்டியலாகும். உங்கள் சாதனத்தில் புதுப்பிப்புகளை உலாவவும், நிறுவவும், கண்காணிக்கவும் கிளையன்ட் எளிதாக்குகிறது.",
        "screenshot": "எஃப்-டிரயோடு அண்ட்ராய்டு பயன்பாட்டு ஸ்கிரீன்ஷாட்",
        "title": "எஃப்-டிரயோடு என்றால் என்ன?"
    },
    "mirrors": {
        "cn": "சீனா",
        "de": "செருமனி",
        "indiana": "இந்தியானா, அமெரிக்கா",
        "se": "சுவீடன்",
        "tw": "தைவான்",
        "ua": "உக்ரைன்"
    },
    "navigation": {
        "about": "விவரங்கள்",
        "apps": "பயன்பாடுகள்",
        "contribute": "பங்களிப்பு",
        "documentation": "ஆவணம்",
        "edit_on_gitlab": "கிட்லாபில் திருத்து",
        "forum": "மன்றம்",
        "issues": "சிக்கல்கள்",
        "news": "செய்தி",
        "translate_on_weblate": "வெப்லேட்டில் மொழிபெயர்"
    },
    "news": {
        "by": "இவரால்",
        "newer_posts": "← புதிய இடுகைகள்",
        "older_posts": "பழைய இடுகைகள் →",
        "posted_on": "{{ post_date }} அன்று இடுகையிடப்பட்டது"
    },
    "package": {
        "added_on": "{{ package_added_date }} இல் சேர்க்கப்பட்டது",
        "anti_features": "எதிர்ப்பு அம்சங்கள்",
        "anti_features_warning": "இந்த பயன்பாட்டில் நீங்கள் விரும்பாத அம்சங்கள் உள்ளன.",
        "author": "ஆசிரியர்",
        "build_log": "பதிவை உருவாக்குங்கள்",
        "build_metadata": "மெட்டாடேட்டாவை உருவாக்குங்கள்",
        "changelog": "மாற்றக் குறிப்புகள்",
        "donate": "நன்கொடை",
        "download": "பதிவிறக்க {{ file_extension }}",
        "flattr": "பிளாட்ர்",
        "gpg_signature": "PGP கையொப்பம்",
        "issue_tracker": "டிராக்கரை வெளியிடுங்கள்",
        "liberapay": "லிபராபே",
        "license": "உரிமம்",
        "minimum_android_version": "இந்த பதிப்பிற்கு Android {{ android_version }} அல்லது புதியது தேவைப்படுகிறது.",
        "new_in_version": "பதிப்பில் புதியது {{ latest_version }}",
        "opencollective": "திறந்த கூட்டு",
        "package_icon_alt": "தொகுப்பு ஐகான்",
        "package_screenshot_alt": "பயன்பாட்டு ஸ்கிரீன்ஷாட்",
        "packages": "தொகுப்புகள்",
        "permissions": "அனுமதிகள்",
        "signed_by_developer": "இது அசல் டெவலப்பரால் கட்டமைக்கப்பட்டு கையொப்பமிடப்பட்டுள்ளது.",
        "signed_by_fdroid": "இது எஃப்-டிரயோடு மூலம் கட்டப்பட்டு கையொப்பமிடப்படுகிறது, மேலும் இந்த மூல டார்பால் க்கு <a href=\"{{ source_code_url }}\"> ஒத்திருக்கும் என்று உத்தரவாதம் அளிக்கப்படுகிறது</a>.",
        "source_code": "மூல குறியீடு",
        "suggest_downloading_via_fdroid": "உங்களுக்கு விருப்பத்தைத் தர APK பதிவிறக்கங்கள் கீழே கிடைத்தாலும், அந்த வழியை நிறுவுவதன் மூலம் நீங்கள் புதுப்பிப்பு அறிவிப்புகளைப் பெற மாட்டீர்கள் என்பதையும், பதிவிறக்குவதற்கான குறைந்த பாதுகாப்பான வழி என்பதையும் நீங்கள் அறிந்திருக்க வேண்டும். எஃப்-டிரயோடு கிளையண்டை நிறுவி அதைப் பயன்படுத்த நாங்கள் பரிந்துரைக்கிறோம்.",
        "suggested": "பரிந்துரைக்கப்படுகிறது",
        "translation": "மொழிபெயர்ப்பு",
        "version_info": "<b>பதிப்பு {{ package_version }}</b> ({{ package_version_code }})",
        "website": "இணையதளம்"
    },
    "permissions": {
        "permdesc_acceptHandovers": "மற்றொரு பயன்பாட்டில் தொடங்கப்பட்ட அழைப்பைத் தொடருவதற்கு, ஆப்ஸை அனுமதிக்கிறது.",
        "permdesc_accessBackgroundLocation": "இந்த ஆப்ஸ் எந்த நேரத்திலும் (ஆப்ஸ் பயன்பாட்டில் இல்லாத நேரத்திலும் கூட) இருப்பிடத் தகவலை அணுகும்.",
        "permdesc_accessCoarseLocation": "இந்த ஆப்ஸ் பயன்பாட்டில் உள்ளபோது இருப்பிடச் சேவைகளிலிருந்து உங்களது தோராயமான இருப்பிடத் தகவலை அது பெறும். இருப்பிடத் தகவலை ஆப்ஸ் பெறுவதற்கு உங்களது சாதனத்தில் இருப்பிடச் சேவைகள் இயக்கப்பட்டிருக்க வேண்டும்.",
        "permdesc_accessDrmCertificates": "DRM சான்றிதழ்களை வழங்க மற்றும் பயன்படுத்த, ஆப்ஸை அனுமதிக்கிறது. சாதாரண பயன்பாடுகளுக்கு எப்போதும் தேவைப்படாது.",
        "permdesc_accessFineLocation": "இந்த ஆப்ஸ் பயன்பாட்டில் இருக்கும்போது இருப்பிடச் சேவைகளிலிருந்து உங்களது துல்லியமான இருப்பிடத் தகவலை அது பெறும். இருப்பிடத் தகவலை ஆப்ஸ் பெறுவதற்கு உங்களது சாதனத்தில் இருப்பிடச் சேவைகள் இயக்கப்பட்டிருக்க வேண்டும். இது பேட்டரியை அதிகம் உபயோகிக்கக்கூடும்.",
        "permdesc_accessImsCallService": "உங்கள் குறுக்கீடின்றி IMS சேவையைப் பயன்படுத்தி அழைப்பதற்கு, ஆப்ஸை அனுமதிக்கும்.",
        "permdesc_accessLocationExtraCommands": "கூடுதல் இட வழங்குநர் கட்டளைகளை அணுகப் ஆப்ஸை அனுமதிக்கிறது. இது, GPS அல்லது பிற இருப்பிட மூலங்களின் செயல்பாட்டை இடைமறிக்க ஆப்ஸை அனுமதிக்கலாம்.",
        "permdesc_accessNetworkConditions": "பிணைய நிலைகள் பற்றிய அறிவிப்புகளைக் கவனிக்க ஆப்ஸை அனுமதிக்கிறது. இயல்பான பயன்பாடுகளுக்கு எப்போதுமே தேவைப்படாது.",
        "permdesc_accessNetworkState": "தற்போது இருக்கும் நெட்வொர்க்குகள் எவை மற்றும் இணைக்கப்பட்டுள்ளவை எவை போன்ற நெட்வொர்க் இணைப்புகள் குறித்த தகவலைப் பார்க்கப் ஆப்ஸை அனுமதிக்கிறது.",
        "permdesc_accessNotifications": "பிற ஆப்ஸால் இடுகையிடப்பட்ட அறிவிப்புகள் உள்பட எல்லா அறிவிப்புகளையும் பெற, பார்க்க மற்றும் அழிக்கப் ஆப்ஸை அனுமதிக்கிறது.",
        "permdesc_accessWifiState": "அருகலை இயக்கப்பட்டுள்ளதா என்பதையும், இணைக்கப்பட்ட அருகலை சாதனங்களின் பெயர் போன்ற அருகலை பிணையம் குறித்த தகவலைப் பார்க்கவும் செயலியை அனுமதிக்கும்.",
        "permdesc_accessWimaxState": "WiMAX இணைக்கப்பட்டுள்ளதா என்பதையும், இணைக்கப்பட்டுள்ள WiMAX பிணையங்கள் ஏதேனும் குறித்த தகவலைத் தீர்மானிக்கவும் செயலியை அனுமதிக்கிறது.",
        "permdesc_access_notification_policy": "தொந்தரவு செய்யாதே உள்ளமைவைப் படிக்கவும் எழுதவும், செயலியை அனுமதிக்கிறது.",
        "permdesc_activityRecognition": "உங்கள் உடல் செயல்பாட்டை இந்த ஆப்ஸால் கண்டறிய முடியும்.",
        "permdesc_addVoicemail": "குரலஞ்சல் இன்பாக்ஸில் செய்திகளைச் சேர்க்க, ஆப்ஸை அனுமதிக்கிறது.",
        "permdesc_answerPhoneCalls": "உள்வரும் ஃபோன் அழைப்பிற்குப் பதிலளிக்க, ஆப்ஸை அனுமதிக்கும்.",
        "permdesc_audioWrite": "உங்களின் இசைத் தொகுப்பை மாற்ற ஆப்ஸை அனுமதிக்கும்.",
        "permdesc_backgroundCamera": "இந்த ஆப்ஸால் எப்போது வேண்டுமானாலும் கேமராவைப் பயன்படுத்தி படங்கள் எடுக்கவும் வீடியோக்களை ரெக்கார்டு செய்யவும் முடியும்.",
        "permdesc_bindCarrierMessagingService": "மொபைல் நிறுவனச் செய்தியிடல் சேவையின் உயர்-நிலை இடைமுகத்துடன் ஹோல்டரை இணைக்க அனுமதிக்கும். இயல்பான பயன்பாடுகளுக்குத் தேவைப்படாது.",
        "permdesc_bindCarrierServices": "மொபைல் நிறுவன சேவைகளுடன் இணைக்க, ஹோல்டரை அனுமதிக்கும். சாதாரணப் பயன்பாடுகளுக்கு எப்போதுமே தேவைப்படாது.",
        "permdesc_bindCellBroadcastService": "செல் ஒளிபரப்பு செய்திகளைப் பெறும்போது அவற்றை அனுப்ப, செல் ஒளிபரப்பு தொகுதிக்கு பிணைக்க பயன்பாட்டை அனுமதிக்கிறது. அவசரகால சூழ்நிலைகள் குறித்து எச்சரிக்க சில இடங்களில் செல் ஒளிபரப்பு எச்சரிக்கைகள் வழங்கப்படுகின்றன. அவசர செல் ஒளிபரப்பு பெறும்போது தீங்கிழைக்கும் பயன்பாடுகள் உங்கள் சாதனத்தின் செயல்திறன் அல்லது செயல்பாட்டில் தலையிடக்கூடும்.",
        "permdesc_bindConditionProviderService": "நிபந்தனை வழங்குநர் சேவையின் உயர் நிலை இடைமுகத்துடன் இணைப்பதற்கு ஹோல்டரை அனுமதிக்கிறது. சாதாரண பயன்பாடுகளுக்கு எப்போதுமே தேவைப்படாது.",
        "permdesc_bindDreamService": "டிரீம் சேவையின் உயர் நிலை இடைமுகத்துடன் இணைப்பதற்கு ஹோல்டரை அனுமதிக்கிறது. இயல்பான பயன்பாடுகளுக்கு எப்போதுமே தேவைப்படாது.",
        "permdesc_bindNotificationListenerService": "அறிவிப்புகளைக் கண்காணிக்கும் சேவையின் உயர் நிலை இடைமுகத்துடன் இணைப்பதற்கு ஹோல்டரை அனுமதிக்கிறது. இயல்பான பயன்பாடுகளுக்கு எப்போதுமே தேவைப்படாது.",
        "permdesc_bind_connection_service": "அழைப்புகளைச் செய்ய/பெற, டெலிஃபோனி சேவைகளுடன் ஊடாட ஆப்ஸை அனுமதிக்கிறது.",
        "permdesc_bind_incall_service": "உள்வரும் அழைப்பிற்கான திரையைப் பயனர் எப்போது மற்றும் எப்படிக் காணவேண்டும் என்பதைக் கட்டுப்படுத்துவதற்குப் ஆப்ஸை அனுமதிக்கிறது.",
        "permdesc_bluetooth": "டேப்லெட்டில் புளூடூத் இன் உள்ளமைவைப் பார்க்க மற்றும் இணைந்த சாதனங்களுடன் இணைப்புகளை ஏற்படுத்த மற்றும் ஏற்க ஆப்ஸை அனுமதிக்கிறது.",
        "permdesc_bluetoothAdmin": "டேப்லெட்டில் அக புளூடூத் ஐ உள்ளமைக்க, தொலைநிலை சாதனங்களைக் கண்டறிந்து இணைக்க, ஆப்ஸை அனுமதிக்கிறது.",
        "permdesc_bluetooth_advertise": "அருகிலுள்ள புளூடூத் சாதனங்களுக்குத் தெரியப்படுத்த ஆப்ஸை அனுமதிக்கும்",
        "permdesc_bluetooth_connect": "இணைக்கப்பட்ட புளூடூத் சாதனங்களுடன் இணைவதற்கு ஆப்ஸை அனுமதிக்கும்",
        "permdesc_bluetooth_scan": "அருகிலுள்ள புளூடூத் சாதனங்களைக் கண்டறிந்து அவற்றுடன் இணைவதற்கு ஆப்ஸை அனுமதிக்கும்",
        "permdesc_bodySensors": "உங்கள் இதயத்துடிப்பு விகிதம் போன்ற உங்கள் உடல்நிலையைக் கண்காணிக்கும் உணர்விகளில் இருந்து தரவை அணுக ஆப்ஸை அனுமதிக்கும்.",
        "permdesc_bodySensors_background": "ஆப்ஸ் பின்னணியில் இயங்கும்போது இதயத் துடிப்பு, வெப்பநிலை, ரத்த ஆக்ஸிஜன் சதவீதம் போன்ற உடல் சென்சார் தரவை அணுக ஆப்ஸை அனுமதிக்கிறது.",
        "permdesc_broadcastSticky": "வலைபரப்பு முடிந்த பின்னும் இருக்கும், தொடர்ந்து அணுகத்தக்க வலைபரப்பை அனுப்பப் ஆப்ஸை அனுமதிக்கிறது. அதிகமாகப் பயன்படுத்தினால், டேப்லெட்டானது நினைவகத்தை மிக அதிகமாகப் பயன்படுத்துவதால் வேகம் குறைந்ததாகவும், நிலையற்றதாகவும் ஆகலாம்.",
        "permdesc_callCompanionApp": "செயலில் உள்ள அழைப்புகளைச் சாதனத்தில் பார்க்கவும் கட்டுப்படுத்தவும் ஆப்ஸை அனுமதிக்கிறது. அழைப்பு எண்கள் மற்றும் அழைப்புகளின் நிலை போன்ற தகவல்களும் இதில் அடங்கும்.",
        "permdesc_callPhone": "உங்கள் தலையீட்டின்றி மொபைல் எண்களை அழைக்கப் ஆப்ஸை அனுமதிக்கிறது. இதன் விளைவாக எதிர்பாராத கட்டணங்களோ அழைப்புகளோ ஏற்படலாம். அவசரகால எண்களை அழைக்க இது ஆப்ஸை அனுமதிக்காது என்பதை நினைவில்கொள்ளவும். தீங்கிழைக்கும் ஆப்ஸ், உங்கள் உறுதிப்படுத்தல் இன்றி அழைப்புகளைச் செய்வதால் உங்களுக்குச் செலவு ஏற்படக்கூடும்.",
        "permdesc_camera": "இந்த ஆப்ஸ் உபயோகத்தில் இருக்கும்போதே இதனால் கேமராவைப் பயன்படுத்தி படங்கள் எடுக்கவும் வீடியோக்களை ரெக்கார்டு செய்யவும் முடியும்.",
        "permdesc_cameraOpenCloseListener": "எந்த கேமரா சாதனமும் திறக்கப்படும்போது (எந்த பயன்பாட்டின் மூலம்) அல்லது மூடப்படும்போது இந்த பயன்பாடு அழைப்புகளைப் பெறலாம்.",
        "permdesc_changeNetworkState": "நெட்வொர்க் இணைப்பின் நிலையை மாற்ற, ஆப்ஸை அனுமதிக்கிறது.",
        "permdesc_changeTetherState": "இணைக்கப்பட்ட நெட்வொர்க் இணைப்பின் நிலையை மாற்ற, ஆப்ஸை அனுமதிக்கிறது.",
        "permdesc_changeWifiMulticastState": "உங்கள் டேப்லெட் மட்டுமல்லாமல், பலமுகவரி பயன்முறையின் முகவரிகளைப் பயன்படுத்தி வைஃபை நெட்வொர்க்கில் எல்லா சாதனங்களுக்கும் அனுப்பிய தொகுப்பைப் பெற ஆப்ஸை அனுமதிக்கிறது. பலமுகவரியற்ற பயன்முறையை விட இது அதிகமான சக்தியைப் பயன்படுத்துகிறது.",
        "permdesc_changeWifiState": "வைஃபை ஆக்சஸ் பாயிண்ட்களில் இணைக்கவும், அவற்றிலிருந்து துண்டிக்கவும் மற்றும் வைஃபை நெட்வொர்க்குகளுக்கான சாதன உள்ளமைவில் மாற்றங்களைச் செய்யவும் ஆப்ஸை அனுமதிக்கிறது.",
        "permdesc_changeWimaxState": "WiMAX நெட்வொர்க்குகளில் டேப்லெட்டை இணைக்கவும், அவற்றிலிருந்து துண்டிக்கவும் ஆப்ஸை அனுமதிக்கிறது.",
        "permdesc_connection_manager": "தொலைத்தொடர்பு இணைப்புகளை நிர்வகிக்க, ஆப்ஸை அனுமதிக்கும்.",
        "permdesc_control_incall_experience": "அழைப்பின் பயனர் அனுபவத்தை வழங்க ஆப்ஸை அனுமதிக்கிறது.",
        "permdesc_createNetworkSockets": "நெட்வொர்க் சாக்கெட்டுகளை உருவாக்கவும் மற்றும் பிரத்தியேக நெட்வொர்க் நெறிமுறைகளைப் பயன்படுத்தவும் ஆப்ஸை அனுமதிக்கிறது. இணையத்தில் தரவை அனுப்ப உலாவியும், பிற பயன்பாடுகளும் இருப்பதால், இணையத்திற்குத் தரவை அனுப்ப இந்த அனுமதி தேவையில்லை.",
        "permdesc_disableKeyguard": "விசைப்பூட்டையும், தொடர்புடைய கடவுச்சொல் பாதுகாப்பையும் முடக்கப் ஆப்ஸை அனுமதிக்கிறது. எடுத்துக்காட்டாக, உள்வரும் மொபைல் அழைப்பைப் பெறும்போது மொபைல் விசைப்பூட்டை முடக்குகிறது, பிறகு அழைப்பு முடிந்தவுடன் விசைப்பூட்டை மீண்டும் இயக்குகிறது.",
        "permdesc_enableCarMode": "கார் முறையை இயக்க, ஆப்ஸை அனுமதிக்கிறது.",
        "permdesc_exemptFromAudioRecordRestrictions": "ஆடியோவை பதிவு செய்வதற்கான கட்டுப்பாடுகளிலிருந்து பயன்பாட்டிற்கு விலக்கு அளிக்கும்.",
        "permdesc_expandStatusBar": "நிலைப் பட்டியை விரிவாக்க அல்லது சுருக்க, ஆப்ஸை அனுமதிக்கிறது.",
        "permdesc_foregroundService": "முன்புலத்தில் இயங்கும் சேவைகளை உபயோகிக்க, ஆப்ஸை அனுமதிக்கிறது.",
        "permdesc_fullScreenIntent": "பூட்டப்பட்ட சாதனத்தில் முழுத்திரைச் செயல்பாடுகளாக அறிவிப்புகளைக் காட்ட ஆப்ஸை அனுமதிக்கும்",
        "permdesc_getAccounts": "டேப்லெட் மூலம் அறியப்பட்ட கணக்குகளின் பட்டியலைப் பெற ஆப்ஸை அனுமதிக்கிறது. நீங்கள் நிறுவிய ஆப்ஸ் மூலம் உருவாக்கப்பட்ட எல்லா கணக்குகளும் இதில் உள்ளடங்கலாம்.",
        "permdesc_getPackageSize": "ஆப்ஸ், அதன் குறியீடு, தரவு, மற்றும் தற்காலிகச் சேமிப்பு அளவுகளை மீட்டெடுக்க அனுமதிக்கிறது",
        "permdesc_getTasks": "நடப்பில் மற்றும் சமீபத்தில் இயங்கும் காரியங்களின் தகவலைப் பெற ஆப்ஸை அனுமதிக்கிறது. சாதனத்தில் எந்த ஆப்ஸ் பயன்படுத்தப்படுகின்றன என்பது குறித்த தகவலைக் கண்டறிய ஆப்ஸை இது அனுமதிக்கலாம்.",
        "permdesc_handoverStatus": "நடப்பு Android பீம் பரிமாற்றங்கள் குறித்த தகவலைப் பெற, ஆப்ஸை அனுமதிக்கிறது",
        "permdesc_highSamplingRateSensors": "200 ஹெர்ட்ஸ்க்கும் அதிகமான வீதத்தில் சென்சார் தரவை மாதிரியாக்க ஆப்ஸை அனுமதிக்கும்",
        "permdesc_imagesWrite": "உங்களின் படத் தொகுப்பை மாற்ற ஆப்ஸை அனுமதிக்கும்.",
        "permdesc_install_shortcut": "பயனரின் அனுமதி இல்லாமல் முகப்புத்திரையின் குறுக்குவழிகளைச் சேர்க்கப் ஆப்ஸை அனுமதிக்கிறது.",
        "permdesc_invokeCarrierSetup": "மொபைல் நிறுவனம் வழங்கிய உள்ளமைவு பயன்பாட்டைச் செயல்படுத்த ஹோல்டரை அனுமதிக்கிறது. இயல்பான பயன்பாடுகளுக்கு எப்போதுமே தேவைப்படாது.",
        "permdesc_killBackgroundProcesses": "பிற ஆப்ஸின் பின்புலச் செயல்முறைகளை நிறுத்த ஆப்ஸை அனுமதிக்கிறது. இதனால் பிற ஆப்ஸ் இயங்குவதை நிறுத்தலாம்.",
        "permdesc_manageFace": "உபயோகிப்பதற்காக முக டெம்ப்ளேட்டுகளை சேர்க்கும்/நீக்கும் முறைகளை இயக்க, ஆப்ஸை அனுமதிக்கும்.",
        "permdesc_manageFingerprint": "பயன்படுத்துவதற்காக, கைரேகை டெம்ப்ளேட்களைச் சேர்க்க மற்றும் நீக்குவதற்கான செயல்முறைகளை இயக்குவதற்குப் ஆப்ஸை அனுமதிக்கும்.",
        "permdesc_manageNetworkPolicy": "நெட்வொர்க் கொள்கைகளை நிர்வகிக்க மற்றும் ஆப்ஸ் சார்ந்த விதிகளை வரையறுக்க, ஆப்ஸை அனுமதிக்கிறது.",
        "permdesc_manageOngoingCalls": "உங்கள் சாதனத்தில், செயலில் உள்ள அழைப்புகள் குறித்த விவரங்களைப் பார்க்கவும் அந்த அழைப்புகளை நிர்வகிக்கவும் ஆப்ஸை அனுமதிக்கும்.",
        "permdesc_manageOwnCalls": "அழைக்கும் அனுபவத்தை மேம்படுத்தும் பொருட்டு, சிஸ்டம் மூலம் தனது அழைப்புகளை ரூட் செய்ய ஆப்ஸை அனுமதிக்கும்.",
        "permdesc_manageProfileAndDeviceOwners": "சுயவிவர உரிமையாளர்களையும் சாதன உரிமையாளரையும் அமைக்க, ஆப்ஸை அனுமதிக்கிறது.",
        "permdesc_mediaLocation": "உங்களின் மீடியா தொகுப்பிலிருந்து இடங்களை அறிந்துகொள்ள ஆப்ஸை அனுமதிக்கும்.",
        "permdesc_modifyAudioSettings": "ஒலியளவு மற்றும் வெளியீட்டிற்கு ஸ்பீக்கர்கள் பயன்படுத்தப்படுவது போன்ற ஒட்டுமொத்த ஆடியோ அமைப்புகளைக் கட்டுப்படுத்தப் ஆப்ஸை அனுமதிக்கிறது.",
        "permdesc_modifyNetworkAccounting": "ஆப்ஸ்களுக்கு எதிராக நெட்வொர்க் ஆப்ஸ் எவ்வாறு கணக்கிடப்படுகிறது என்பதை மாற்ற ஆப்ஸை அனுமதிக்கிறது. இயல்பான ஆப்ஸ்களால் பயன்படுத்தப்படுவதற்காக அல்ல.",
        "permdesc_nearby_wifi_devices": "அருகிலுள்ள வைஃபை சாதனங்களைத் தெரியப்படுத்தவும் இணைக்கவும் இருப்பிடத்தைத் தீர்மானிக்கவும் இது ஆப்ஸை அனுமதிக்கும்",
        "permdesc_nfc": "குறுகிய இடைவெளி தகவல்பரிமாற்றம் (NFC), குறிகள், கார்டுகள் மற்றும் ரீடர்கள் ஆகியவற்றுடன் தொடர்புகொள்ள, ஆப்ஸை அனுமதிக்கிறது.",
        "permdesc_persistentActivity": "நினைவகத்தில் நிலையாக இருக்கும் தன்னுடைய பகுதிகளை உருவாக்கப் ஆப்ஸை அனுமதிக்கிறது. இதனால பிற பயன்பாடுகளுக்குக் கிடைக்கும் நினைவகம் வரையறுக்கப்பட்டு, டேப்லெட்டின் வேகத்தைக் குறைக்கலாம்.",
        "permdesc_postNotification": "அறிவிப்புகளைக் காட்ட ஆப்ஸை அனுமதிக்கும்",
        "permdesc_preferredPaymentInfo": "பதிவுசெய்யப்பட்ட எய்ட்ஸ் மற்றும் பாதை இலக்கு போன்ற விருப்பமான என்எப்சி கட்டண சேவை தகவல்களைப் பெற பயன்பாட்டை அனுமதிக்கிறது.",
        "permdesc_processOutgoingCalls": "மற்றொரு எண்ணிற்கு அழைப்பைத் திருப்பிவிடு அல்லது அழைப்பை முழுமையாக ரத்துசெய் என்னும் விருப்பத்துடன், வெளிச்செல்லும் அழைப்பை மேற்கொள்ளும்போது டயல் செய்யப்படுகின்ற எண்ணைப் பார்க்க, ஆப்ஸை அனுமதிக்கிறது.",
        "permdesc_queryAllPackages": "நிறுவப்பட்டுள்ள அனைத்துப் பேக்கேஜ்களையும் பார்ப்பதற்கு ஆப்ஸை அனுமதிக்கும்.",
        "permdesc_readBasicPhoneState": "சாதனத்திலுள்ள அடிப்படையான டெலிஃபோனி அம்சங்களை அணுக ஆப்ஸை அனுமதிக்கும்.",
        "permdesc_readCalendar": "இந்த ஆப்ஸ் உங்கள் டேப்லெட்டில் சேமிக்கப்பட்டுள்ள கேலெண்டர் நிகழ்வுகள் அனைத்தையும் படிக்கலாம், உங்கள் கேலெண்டர் தரவைப் பகிரலாம் அல்லது சேமிக்கலாம்.",
        "permdesc_readCallLog": "இந்த ஆப்ஸ் உங்கள் அழைப்பு வரலாற்றைப் படிக்கலாம்.",
        "permdesc_readCellBroadcasts": "உங்கள் சாதனத்தில் பெறப்படும் செல் அலைபரப்புச் செய்திகளைப் படிப்பதற்குப் ஆப்ஸை அனுமதிக்கிறது. அவசரநிலை சூழ்நிலைகளை உங்களுக்கு எச்சரிக்கைச் செய்வதற்கு சில இடங்களில் செல் அலைபரப்பு விழிப்பூட்டல்கள் வழங்கப்படும். அவசரநிலை மொபைல் அலைபரப்புப் பெறப்படும்போது உங்கள் சாதனத்தின் செயல்திறன் அல்லது செயல்பாட்டுடன் தீங்கிழைக்கும் ஆப்ஸ் அதைத் தடுக்கலாம்.",
        "permdesc_readContacts": "உங்கள் மொபைலில் சேமித்துள்ள தொடர்புகள் பற்றிய தரவை அணுக ஆப்ஸை அனுமதிக்கும். உங்கள் மொபைலில் உள்ள தொடர்புகளை உருவாக்கிய கணக்குகளுக்கான அணுகலும் ஆப்ஸிற்கு இருக்கும். நீங்கள் நிறுவிய ஆப்ஸ் மூலம் உருவாக்கப்பட்ட அனைத்துக் கணக்குகளும் இதில் உள்ளடங்கக்கூடும். இந்த அனுமதி உங்கள் தொடர்புத் தரவைச் சேமிக்க ஆப்ஸை அனுமதிக்கிறது, மேலும் தீங்கிழைக்கும் ஆப்ஸ் உங்களுக்குத் தெரியாமல் தொடர்பு தரவைப் பகிரக்கூடும்.",
        "permdesc_readHistoryBookmarks": "உலாவி மூலம் பார்வையிட்ட எல்லா URLகளின் வரலாற்றையும், உலாவியில் குறிக்கப்பட்ட எல்லா புத்தகக்குறிகளையும் படிக்கப் ஆப்ஸை அனுமதிக்கிறது. குறிப்பு: மூன்றாம் தரப்பு உலாவிகள் அல்லது இணைய உலாவல் திறன்களுடன் கூடிய பிற ஆப்ஸால் இந்த அனுமதி செயற்படுத்தப்படாமல் போகலாம்.",
        "permdesc_readInstallSessions": "நிறுவல் அமர்வுகளைப் படிக்க, ஆப்ஸை அனுமதிக்கிறது. இது செயல்படும் தொகுப்பு நிறுவல்களைப் பற்றிய விவரங்களைப் பார்க்க அனுமதிக்கிறது.",
        "permdesc_readMediaAudio": "உங்கள் பகிர்ந்த சேமிப்பகத்திலுள்ள ஆடியோ ஃபைல்களைப் படிக்க ஆப்ஸை அனுமதிக்கும்.",
        "permdesc_readMediaImages": "உங்கள் பகிர்ந்த சேமிப்பகத்திலுள்ள பட ஃபைல்களைப் படிக்க ஆப்ஸை அனுமதிக்கும்.",
        "permdesc_readMediaVideo": "உங்கள் பகிர்ந்த சேமிப்பகத்திலுள்ள வீடியோ ஃபைல்களைப் படிக்க ஆப்ஸை அனுமதிக்கும்.",
        "permdesc_readNetworkUsageHistory": "குறிப்பிட்ட நெட்வொர்க்குகள் மற்றும் பயன்பாடுகளுக்கான நெட்வொர்க் ஆப்ஸின் வரலாற்றைப் படிக்க, ஆப்ஸை அனுமதிக்கிறது.",
        "permdesc_readPhoneNumbers": "சாதனத்தின் ஃபோன் எண்களை அணுக, ஆப்ஸை அனுமதிக்கும்.",
        "permdesc_readPhoneState": "சாதனத்தின் மொபைல் அம்சங்களை அணுகப் ஆப்ஸை அனுமதிக்கிறது. மொபைல் மற்றும் சாதன ஐடிகள், அழைப்பு செயலில் உள்ளதா மற்றும் அழைப்பு மூலம் இணைக்கப்பட்ட தொலைக் கட்டுப்பாட்டு எண் ஆகியவற்றைத் தீர்மானிக்க இந்த அனுமதி ஆப்ஸை அனுமதிக்கிறது.",
        "permdesc_readSms": "இந்த ஆப்ஸ் உங்கள் டேப்லெட்டில் சேமிக்கப்பட்டுள்ள எல்லா SMS (உரை) செய்திகளையும் படிக்கலாம்.",
        "permdesc_readSyncSettings": "கணக்கிற்கான ஒத்திசைவு அமைப்புகளைப் படிக்க ஆப்ஸை அனுமதிக்கிறது. எடுத்துக்காட்டாக, பீப்பிள் ஆப்ஸ் கணக்குடன் ஒத்திசைக்கப்பட்டுள்ளதா என்பதை இது தீர்மானிக்கலாம்.",
        "permdesc_readSyncStats": "நிகழ்வுகள் ஒத்திசைவின் வரலாறு மற்றும் ஒத்திசைக்கப்பட்ட தரவு எவ்வளவு ஆகியன உட்பட, கணக்கிற்கான ஒத்திசைவு புள்ளிவிவரங்களைப் படிக்க ஆப்ஸை அனுமதிக்கிறது.",
        "permdesc_receiveBootCompleted": "மறுஇயக்கம் முடிந்தது, விரைவில் தானாகவே தொடங்க, ஆப்ஸை அனுமதிக்கிறது. இதனால் டேப்லெட் நீண்ட நேரம் கழித்து தொடங்கும் மற்றும் எப்போதும் இயங்குகின்ற டேப்லெட்டின் ஒட்டுமொத்தச் செயல்பாட்டையும் தாமதமாகும்.",
        "permdesc_receiveMms": "MMS செய்திகளைப் பெற, செயற்படுத்தப் ஆப்ஸை அனுமதிக்கிறது. இதற்கு அர்த்தம் உங்கள் சாதனத்திற்கு அனுப்பப்படும் செய்திகளை உங்களுக்குக் காட்டாமல் கண்காணிக்கவோ, நீக்கவோ ஆப்ஸால் முடியும் என்பதாகும்.",
        "permdesc_receiveSms": "SMS செய்திகளைப் பெற, செயற்படுத்தப் ஆப்ஸை அனுமதிக்கிறது. இதற்கு அர்த்தம் உங்கள் சாதனத்திற்கு அனுப்பப்படும் செய்திகளை உங்களுக்குக் காட்டாமல் கண்காணிப்பதற்கு அல்லது நீக்குவதற்கு ஆப்ஸால் முடியும் என்பதாகும்.",
        "permdesc_receiveWapPush": "WAP செய்திகளைப் பெற, செயற்படுத்தப் ஆப்ஸை அனுமதிக்கிறது. உங்களுக்கு அனுப்பப்படும் செய்திகளை உங்களுக்குக் காட்டாமல் கண்காணிக்க அல்லது நீக்குவதற்கான திறன் இந்த அனுமதியில் உள்ளடங்கும்.",
        "permdesc_recordAudio": "இந்த ஆப்ஸ் உபயோகத்தில் இருக்கும்போதே இதனால் மைக்ரோஃபோனைப் பயன்படுத்தி ஆடியோவை ரெக்கார்டு செய்ய முடியும்.",
        "permdesc_recordBackgroundAudio": "இந்த ஆப்ஸால் எப்போது வேண்டுமானாலும் மைக்ரோஃபோனைப் பயன்படுத்தி ஆடியோவை ரெக்கார்டு செய்ய முடியும்.",
        "permdesc_register_call_provider": "புதிய தொலைத்தொடர்பு இணைப்புகளைப் பதிவுசெய்ய, ஆப்ஸை அனுமதிக்கும்.",
        "permdesc_register_sim_subscription": "புதிய நிறுவன சிம் இணைப்புகளைப் பதிவுசெய்ய, ஆப்ஸை அனுமதிக்கும்.",
        "permdesc_removeDrmCertificates": "DRM சான்றிதழ்களை அகற்ற, ஆப்ஸை அனுமதிக்கிறது. சாதாரண பயன்பாடுகளுக்கு எப்போதுமே தேவைப்படாது.",
        "permdesc_reorderTasks": "பின்புலத்திலும், முன்புலத்திலும் காரியங்களை நகர்த்த ஆப்ஸை அனுமதிக்கிறது. உங்கள் உள்ளீடு இல்லாமலே ஆப்ஸ் இதைச் செய்யலாம்.",
        "permdesc_requestDeletePackages": "தொகுப்புகளை நீக்க கோர, ஆப்ஸை அனுமதிக்கும்.",
        "permdesc_requestIgnoreBatteryOptimizations": "பயன்பாட்டிற்கான பேட்டரி மேம்படுத்தல்களைப் புறக்கணிப்பதற்கான அனுமதியைக் கோர, ஆப்ஸை அனுமதிக்கும்.",
        "permdesc_requestInstallPackages": "தொகுப்புகளின் நிறுவலைக் கோர, ஆப்ஸை அனுமதிக்கும்.",
        "permdesc_requestPasswordComplexity": "திரைப் பூட்டு தொடர்பான சிக்கலின் தன்மையை (அதிகம், நடுத்தரம், குறைவு அல்லது ஏதுமில்லை) அறிந்துகொள்ள ஆப்ஸை அனுமதிக்கிறது. இதன் மூலம் திரைப் பூட்டின் அளவு வரம்பையும் வகையையும் தெரிந்துகொள்ளலாம். மேலும் திரைப் பூட்டைக் குறிப்பிட்ட நிலைக்கு மாற்றிக் கொள்ளலாம் என்பதையும் பயனர்களுக்கு ஆப்ஸ் பரிந்துரைக்க முடியும். ஆனால் தங்கள் விருப்பப்படி அவற்றைப் பயனர்கள் நிராகரிக்கவோ ஏற்கவோ இயலும். கவனத்திற்கு: திரைப் பூட்டு எளிய உரையிலானதாக சேமிக்கப்படுவதில்லை என்பதால் சரியான கடவுச்சொல்லை ஆப்ஸால் அறிய இயலாது.",
        "permdesc_route_media_output": "மீடியாவைப் பிற வெளிப்புறச் சாதனங்களுக்கு வெளியீடாக வழிகாட்ட ஆப்ஸை அனுமதிக்கிறது.",
        "permdesc_runInBackground": "இந்த ஆப்ஸ், பின்னணியில் இயங்கலாம். இதனால் பேட்டரி விரைவாகத் தீர்ந்துவிடக்கூடும்.",
        "permdesc_sdcardRead": "பகிர்ந்த சேமிப்பகத்தின் உள்ளடக்கங்களைப் பார்க்க ஆப்ஸை அனுமதிக்கும்.",
        "permdesc_sdcardWrite": "பகிர்ந்த சேமிப்பகத்தின் உள்ளடக்கத்தில் மாற்றங்களைச் செய்ய அனுமதிக்கும்.",
        "permdesc_sendSms": "SMS செய்திகளை அனுப்ப ஆப்ஸை அனுமதிக்கிறது. இதற்கு எதிர்பாராத பேமெண்ட்கள் விதிக்கப்படலாம். தீங்கு விளைவிக்கும் ஆப்ஸ் உங்களின் உறுதிப்படுத்தல் எதுவுமின்றி செய்திகளை அனுப்பி உங்களுக்குக் கட்டணம் விதிக்கலாம்.",
        "permdesc_setAlarm": "நிறுவிய அலார கடிகாரப் பயன்பாட்டில் அலாரத்தை அமைக்க, ஆப்ஸை அனுமதிக்கிறது. சில அலார கடிகார பயன்பாடுகளில் இந்த அம்சம் இல்லாமல் இருக்கலாம்.",
        "permdesc_setInputCalibration": "தொடுதல் திரையின் அளவு திருத்த அளபுருக்களை மாற்ற, ஆப்ஸை அனுமதிக்கிறது. சாதாரண பயன்பாடுகளுக்குத் தேவைப்படாது.",
        "permdesc_setTimeZone": "டேப்லெட்டின் நேர மண்டலத்தை மாற்ற, ஆப்ஸை அனுமதிக்கிறது.",
        "permdesc_setWallpaper": "முறைமை வால்பேப்பரை அமைக்க ஆப்ஸை அனுமதிக்கிறது.",
        "permdesc_setWallpaperHints": "முறைமை வால்பேப்பர் அளவுக் குறிப்புகளை அமைக்க ஆப்ஸை அனுமதிக்கிறது.",
        "permdesc_sim_communication": "சிம் க்குக் கட்டளைகளை அனுப்ப ஆப்ஸை அனுமதிக்கிறது. இது மிகவும் ஆபத்தானதாகும்.",
        "permdesc_startReviewPermissionDecisions": "அனுமதி தொடர்பான முடிவுகளை மதிப்பாய்வு செய்ய, திரையைத் தொடங்குவதற்கான அனுமதியை ஹோல்டருக்கு வழங்கும். இயல்பான ஆப்ஸிற்கு இது எப்போதுமே தேவைப்படாது.",
        "permdesc_startViewAppFeatures": "ஆப்ஸின் அம்சங்கள் குறித்த தகவல்களைப் பார்ப்பதற்கான அனுமதியை ஹோல்டருக்கு வழங்கும்.",
        "permdesc_startViewPermissionUsage": "ஆப்ஸிற்கான அனுமதி உபயோகத்தை ஹோல்டருக்கு வழங்கும். இயல்பான ஆப்ஸிற்கு இது எப்போதுமே தேவைப்படாது.",
        "permdesc_statusBar": "நிலைப் பட்டியை முடக்க அல்லது முறைமையில் ஐகான்களைச் சேர்க்க மற்றும் அகற்ற ஆப்ஸை அனுமதிக்கிறது.",
        "permdesc_statusBarService": "நிலைப் பட்டியில் இருக்க ஆப்ஸை அனுமதிக்கிறது.",
        "permdesc_subscribedFeedsRead": "தற்போது ஒத்திசைந்த ஊட்டங்களைப் பற்றிய விவரங்களைப் பெற ஆப்ஸை அனுமதிக்கிறது.",
        "permdesc_systemAlertWindow": "இந்த ஆப்ஸ் பிற ஆப்ஸின் மேலே அல்லது திரையின் பிற பகுதிகளில் தோன்றலாம். இது வழக்கமான ஆப்ஸ் உபயோகத்தில் குறுக்கிட்டு, பிற ஆப்ஸ் தோன்றும் விதத்தை மாற்றக்கூடும்.",
        "permdesc_systemCamera": "இந்த சலுகை பெற்ற அல்லது கணினி பயன்பாடு எந்த நேரத்திலும் கணினி கேமராவைப் பயன்படுத்தி படங்களை எடுத்து வீடியோக்களைப் பதிவு செய்யலாம். பயன்பாட்டால் வைத்திருக்க Android.permission.CAMERA அனுமதி தேவை",
        "permdesc_transmitIr": "டேப்லெட்டின் அகச்சிவப்பு டிரான்ஸ்மிட்டரைப் பயன்படுத்த, ஆப்ஸை அனுமதிக்கிறது.",
        "permdesc_uninstall_shortcut": "பயனரின் அனுமதி இல்லாமல் முகப்புத்திரையின் குறுக்குவழிகளை அகற்ற ஆப்ஸை அனுமதிக்கிறது.",
        "permdesc_useBiometric": "பயோமெட்ரிக் வன்பொருளைப் பயன்படுத்தி அங்கீகரிப்பதற்கு, ஆப்ஸை அனுமதிக்கும்",
        "permdesc_useDataInBackground": "இந்த ஆப்ஸ், பின்னணியில் டேட்டாவை உபயோகிக்கலாம். இதனால் டேட்டா உபயோகம் அதிகரிக்கக்கூடும்.",
        "permdesc_useFaceAuthentication": "அடையாளம் காண 'முகம் காட்டித் திறத்தலுக்கான' வன்பொருளைப் பயன்படுத்த ஆப்ஸை அனுமதிக்கும்",
        "permdesc_useFingerprint": "அங்கீகரிப்பதற்கு, கைரேகை வன்பொருளைப் பயன்படுத்த, ஆப்ஸை அனுமதிக்கும்",
        "permdesc_use_sip": "SIP அழைப்புகளைச் செய்ய/பெற, ஆப்ஸை அனுமதிக்கிறது.",
        "permdesc_uwb_ranging": "அருகிலுள்ள அல்ட்ரா-வைடுபேண்ட் சாதனங்களுக்கிடையிலான தூரத்தைத் தீர்மானிக்க ஆப்ஸை அனுமதிக்கும்",
        "permdesc_vibrate": "அதிர்வைக் கட்டுப்படுத்தப் ஆப்ஸை அனுமதிக்கிறது.",
        "permdesc_vibrator_state": "பயன்பாட்டை வைப்ரேட்டர் நிலையை அணுக அனுமதிக்கிறது.",
        "permdesc_videoWrite": "உங்களின் வீடியோ தொகுப்பை மாற்ற ஆப்ஸை அனுமதிக்கும்.",
        "permdesc_wakeLock": "கார் திரையை ஆன் செய்து வைத்திருப்பதற்கு இந்த ஆப்ஸை அனுமதிக்கும்.",
        "permdesc_writeCalendar": "இந்த ஆப்ஸ் உங்கள் டேப்லெட்டில் கேலெண்டர் நிகழ்வுகளைச் சேர்க்கலாம், அகற்றலாம் அல்லது மாற்றலாம். இந்த ஆப்ஸ் கேலெண்டர் உரிமையாளர்கள் அனுப்பியது போல் தோன்றும் செய்திகளை அனுப்பலாம் அல்லது உரிமையாளர்களிடம் தெரிவிக்காமலே கேலெண்டரில் நிகழ்வுகளை மாற்றலாம்.",
        "permdesc_writeCallLog": "உள்வரும் மற்றும் வெளிச்செல்லும் அழைப்புகள் குறித்த தகவல் உள்பட உங்கள் டேப்லெட்டின் அழைப்புப் பதிவைத் திருத்துவதற்குப் ஆப்ஸை அனுமதிக்கிறது. உங்கள் அழைப்பின் பதிவை அழிக்க அல்லது திருத்த தீங்கு விளைவிக்கும் ஆப்ஸ் இதைப் பயன்படுத்தலாம்.",
        "permdesc_writeContacts": "உங்கள் மொபைலில் சேமித்துள்ள தொடர்புகள் பற்றிய தரவை மாற்ற ஆப்ஸை அனுமதிக்கும். இது தொடர்புத் தரவை நீக்கவும் ஆப்ஸை அனுமதிக்கும்.",
        "permdesc_writeGeolocationPermissions": "உலாவியின் புவியியல் இருப்பிடம் சார்ந்த அனுமதிகளைத் திருத்த, ஆப்ஸை அனுமதிக்கிறது. இடத் தகவலை தன்னிச்சையான இணையதளங்களுக்கு அனுப்புவதை அனுமதிக்க, தீங்குவிளைவிக்கும் ஆப்ஸ் இதைப் பயன்படுத்தலாம்.",
        "permdesc_writeHistoryBookmarks": "உங்கள் டேப்லெட்டில் சேமிக்கப்பட்ட உலாவியின் வரலாறு அல்லது புத்தகக்குறிகளைத் திருத்த ஆப்ஸை அனுமதிக்கிறது. இது உலாவியின் தரவை அழிக்கவோ, திருத்தவோ ஆப்ஸை அனுமதிக்கலாம். குறிப்பு: இணைய உலாவல் செயல்திறன்கள் மூலம் மூன்றாம் தரப்பு உலாவிகள் அல்லது பிற ஆப்ஸ் இந்த அனுமதியைச் செயற்படுத்த முடியாது.",
        "permdesc_writeSettings": "முறைமையின் அமைப்பு தரவைத் திருத்த, ஆப்ஸை அனுமதிக்கிறது. தீங்குவிளைவிக்கும் ஆப்ஸ், முறைமையின் உள்ளமைவைச் சிதைக்கலாம்.",
        "permdesc_writeSyncSettings": "கணக்கிற்கான ஒத்திசைவு அமைப்புகளைத் திருத்த ஆப்ஸை அனுமதிக்கிறது. எடுத்துக்காட்டாக, பீப்பிள் ஆப்ஸைக் கணக்குடன் ஒத்திசைவை இயக்குவதற்கு இது பயன்படுத்தப்படலாம்.",
        "permgroupbackgroundrequest_location": "பின்புல இருப்பிடத்தைக் கோர செயலியை அனுமதி.",
        "permgroupbackgroundrequestdetail_location": "பயன்பாட்டைப் பயன்படுத்தும்போது மட்டுமே பயன்பாடு தற்போது இருப்பிடத்தை அணுக முடியும்",
        "permgroupdesc_activityRecognition": "உடல் செயல்பாட்டைக் கண்காணிக்கும்",
        "permgroupdesc_calendar": "கேலெண்டரை அணுகலாம்",
        "permgroupdesc_calllog": "மொபைல் அழைப்புப் பதிவைப் படிக்கும், எழுதும்",
        "permgroupdesc_camera": "படங்கள் மற்றும் வீடியோக்கள் எடுக்கலாம்",
        "permgroupdesc_contacts": "தொடர்புகளை அணுக வேண்டும்",
        "permgroupdesc_location": "இந்தச் சாதனத்தின் இருப்பிடத்தை அறிந்து கொள்ள",
        "permgroupdesc_microphone": "ஒலிப் பதிவு செய்யலாம்",
        "permgroupdesc_nearby_devices": "அருகிலுள்ள சாதனங்களைக் கண்டறிந்து அவற்றுடன் இணையும்",
        "permgroupdesc_notifications": "அறிவிப்புகளைக் காட்டும்",
        "permgroupdesc_phone": "யாரையும் தொலைபேசியில் அழைக்கலாம்",
        "permgroupdesc_readMediaAural": "உங்கள் சாதனத்திலுள்ள இசையையும் ஆடியோவையும் அணுகும்",
        "permgroupdesc_readMediaVisual": "உங்கள் சாதனத்திலுள்ள படங்களையும் வீடியோக்களையும் அணுகும்",
        "permgroupdesc_sensors": "உங்கள் உடல் இயக்கம் பற்றி உணர்விகள் கூறும் தகவலைப் பார்க்கலாம்",
        "permgroupdesc_sms": "SMS அனுப்பலாம், வந்த SMSகளைப் பார்க்கலாம்",
        "permgroupdesc_storage": "உங்கள் சாதனத்தில் உள்ள படங்கள், மீடியா மற்றும் கோப்புகளை அணுக வேண்டும்",
        "permgrouplab_activityRecognition": "உடல் செயல்பாடுகள்",
        "permgrouplab_calendar": "நாட்காட்டி/ஆண்டுக்குறிப்பேடு",
        "permgrouplab_calllog": "அழைப்புப் பதிவுகள்",
        "permgrouplab_camera": "கேமரா",
        "permgrouplab_contacts": "தொடர்புகள்",
        "permgrouplab_location": "இருப்பிடம்",
        "permgrouplab_microphone": "மைக்ரோஃபோன்",
        "permgrouplab_nearby_devices": "அருகிலுள்ள சாதனங்கள்",
        "permgrouplab_notifications": "அறிவிப்புகள்",
        "permgrouplab_phone": "ஃபோன்",
        "permgrouplab_readMediaAural": "இசையும் ஆடியோவும்",
        "permgrouplab_readMediaVisual": "படங்களும் வீடியோக்களும்",
        "permgrouplab_sensors": "உடல் சென்சார்கள்",
        "permgrouplab_sms": "SMS",
        "permgrouplab_storage": "ஃபைல்கள்",
        "permgrouprequest_activityRecognition": "உங்கள் செயல்பாட்டைக் கண்காணிக்க பயன்பாட்டை அனுமதிக்கவும்.",
        "permgrouprequest_calendar": "<b> ஐ அனுமதிக்கவும் </b>",
        "permgrouprequest_calllog": "<b> ஐ அனுமதிக்கவும் </b>",
        "permgrouprequest_camera": "<b> ஐ அனுமதிக்கவும் </b>",
        "permgrouprequest_contacts": "<b> ஐ அனுமதிக்கவும் </b>",
        "permgrouprequest_location": "<b> ஐ அனுமதிக்கவும் </b>",
        "permgrouprequest_microphone": "<b> ஐ அனுமதிக்கவும் </b>",
        "permgrouprequest_phone": "<b> ஐ அனுமதிக்கவும் </b>",
        "permgrouprequest_sensors": "<b> ஐ அனுமதிக்கவும் </b>",
        "permgrouprequest_sms": "<b> ஐ அனுமதிக்கவும் </b>",
        "permgrouprequest_storage": "<b> ஐ அனுமதிக்கவும் </b>",
        "permgrouprequestdetail_location": "நீங்கள் பயன்பாட்டைப் பயன்படுத்தும்போது மட்டுமே இருப்பிடத்தை அணுக முடியும்",
        "permlab_acceptHandover": "மற்றொரு பயன்பாட்டிலிருந்து அழைப்பைத் தொடருதல்",
        "permlab_accessBackgroundLocation": "பின்புலத்தில் இருப்பிடத்தை அணுகுதல்",
        "permlab_accessCoarseLocation": "முன்புலத்தில் இயங்கும்போது மட்டும் தோராயமான இருப்பிடத்தைக் கண்டறிதல்",
        "permlab_accessDrmCertificates": "DRM சான்றிதழ்களை அணுகுதல்",
        "permlab_accessFineLocation": "முன்புலத்தில் இயங்கும்போது மட்டும் துல்லியமான இருப்பிடத்தைக் கண்டறிதல்",
        "permlab_accessImsCallService": "IMS அழைப்புச் சேவையை அணுகுதல்",
        "permlab_accessLocationExtraCommands": "கூடுதல் இட வழங்குநரின் கட்டளைகளின் அணுகல்",
        "permlab_accessNetworkConditions": "பிணைய நிலைகள் பற்றிய அறிவிப்புகளைக் கவனித்தல்",
        "permlab_accessNetworkState": "நெட்வொர்க் இணைப்புகளைக் காட்டு",
        "permlab_accessNotifications": "அறிவிப்புகளின் அணுகல்",
        "permlab_accessWifiState": "வைஃபை இணைப்புகளைக் காட்டு",
        "permlab_accessWimaxState": "WiMAX உடன் இணை மற்றும் அதனுடனான தொடர்பைத் துண்டி",
        "permlab_access_notification_policy": "தொந்தரவு செய்ய வேண்டாம் அம்சத்தை அணுகுதல்",
        "permlab_activityRecognition": "உடல் செயல்பாட்டைக் கண்டறிதல்",
        "permlab_addVoicemail": "குரலஞ்சலைச் சேர்த்தல்",
        "permlab_answerPhoneCalls": "ஃபோன் அழைப்புகளுக்குப் பதிலளி",
        "permlab_audioWrite": "இசைத் தொகுப்பை மாற்றுதல்",
        "permlab_backgroundCamera": "பின்புலத்தில் படங்களையும் வீடியோக்களையும் எடுத்தல்",
        "permlab_bindCarrierMessagingService": "மொபைல் நிறுவனச் செய்தியிடல் சேவையுடன் இணைத்தல்",
        "permlab_bindCarrierServices": "மொபைல் நிறுவன சேவைகளுடன் இணைத்தல்",
        "permlab_bindCellBroadcastService": "செல் ஒளிபரப்பு செய்திகளை அனுப்பவும்",
        "permlab_bindConditionProviderService": "நிபந்தனை வழங்குநர் சேவையுடன் இணைத்தல்",
        "permlab_bindDreamService": "டிரீம் சேவையுடன் இணை",
        "permlab_bindNotificationListenerService": "அறிவிப்புகளைக் கண்காணிக்கும் சேவையுடன் இணைத்தல்",
        "permlab_bind_connection_service": "டெலிஃபோனி சேவைகளுடனான ஊடாடல்",
        "permlab_bind_incall_service": "உள்வரும் அழைப்பிற்கான திரையுடன் ஊடாடுதல்",
        "permlab_bluetooth": "புளூடூத் சாதனங்களுடன் இணைத்தல்",
        "permlab_bluetoothAdmin": "புளூடூத் அமைப்புகளை அணுகுதல்",
        "permlab_bluetooth_advertise": "அருகிலுள்ள புளூடூத் சாதனங்களுக்கு தெரியப்படுத்தல்",
        "permlab_bluetooth_connect": "இணைக்கப்பட்ட புளூடூத் சாதனங்களுடன் இணைத்தல்",
        "permlab_bluetooth_scan": "அருகிலுள்ள புளூடூத் சாதனங்களை கண்டறிந்து இணைத்தல்",
        "permlab_bodySensors": "உடல் உணர்விகளை (இதயத் துடிப்பு மானிட்டர்கள் போன்றவை) அணுகுதல்",
        "permlab_bodySensors_background": "பின்னணியில் இயங்கும்போது இதயத் துடிப்பு போன்ற உடல் சென்சார் தரவை அணுகுதல்",
        "permlab_broadcastSticky": "தொடர்ந்து அணுகத்தக்க வலைபரப்பை அனுப்புதல்",
        "permlab_callCompanionApp": "சிஸ்டம் மூலமாக அழைப்புகளைப் பார்த்தலும் கட்டுப்படுத்துதலும்.",
        "permlab_callPhone": "தொலைபேசி எண்களை நேரடியாக அழைத்தல்",
        "permlab_camera": "படங்கள் மற்றும் வீடியோக்களை எடுத்தல்",
        "permlab_cameraOpenCloseListener": "கேமரா சாதனங்கள் திறக்கப்படுவது அல்லது மூடப்படுவது குறித்த கால்பேக்குகளைப் பெற ஒரு பயன்பாடு அல்லது சேவையை அனுமதிக்கவும்.",
        "permlab_changeNetworkState": "பிணைய இணைப்புத்தன்மையை மாற்றுதல்",
        "permlab_changeTetherState": "இணைக்கப்பட்ட இணைப்புநிலையை மாற்றுதல்",
        "permlab_changeWifiMulticastState": "வைஃபை பலமுகவரி பெறுதலை இயக்குதல்",
        "permlab_changeWifiState": "வைஃபை உடன் இணைக்கவும் மற்றும் அதனுடனான தொடர்பைத் துண்டித்தல்",
        "permlab_changeWimaxState": "WiMAX நிலையை மாற்றுதல்",
        "permlab_connection_manager": "தொலைத்தொடர்பு இணைப்புகளை நிர்வகி",
        "permlab_control_incall_experience": "அழைப்பின் பயனர் அனுபவத்தை வழங்குதல்",
        "permlab_createNetworkSockets": "முழுமையான நெட்வொர்க் அணுகலைக் கொண்டிருக்கும்",
        "permlab_disableKeyguard": "உங்கள் திரைப் பூட்டை முடக்குதல்",
        "permlab_enableCarMode": "கார் பயன்முறையை இயக்குதல்",
        "permlab_exemptFromAudioRecordRestrictions": "ஆடியோ பதிவு கட்டுப்பாடுகளிலிருந்து விலக்கு",
        "permlab_expandStatusBar": "நிலைப் பட்டியை விரிவாக்குதல்/சுருக்குதல்",
        "permlab_foregroundService": "முன்புலத்தில் இயங்கும் சேவையை இயக்குதல்",
        "permlab_fullScreenIntent": "பூட்டப்பட்ட சாதனத்தில் முழுத்திரைச் செயல்பாடுகளாக அறிவிப்புகளைக் காட்டுதல்",
        "permlab_getAccounts": "சாதனத்தில் கணக்குகளைக் கண்டறிதல்",
        "permlab_getPackageSize": "ஆப்ஸ் சேமிப்பு இடத்தை அளவிடல்",
        "permlab_getTasks": "இயங்கும் ஆப்ஸை மீட்டெடுத்தல்",
        "permlab_handoverStatus": "Android பீம் பரிமாற்ற நிலையைப் பெறுதல்",
        "permlab_highSamplingRateSensors": "அதிகளவிலான சாம்பிளிங் ரேட்டில் சென்சார் தரவை அணுகுதல்",
        "permlab_imagesWrite": "படத் தொகுப்பை மாற்றுதல்",
        "permlab_install_shortcut": "குறுக்குவழிகளை நிறுவுதல்",
        "permlab_invokeCarrierSetup": "மொபைல் நிறுவனம் வழங்கிய உள்ளமைவு ஆப்ஸை செயலாக்குதல்",
        "permlab_killBackgroundProcesses": "பிற ஆப்ஸை மூடுதல்",
        "permlab_manageFace": "'முகம் காட்டித் திறத்தலுக்கான' வன்பொருளை நிர்வகித்தல்",
        "permlab_manageFingerprint": "கைரேகை வன்பொருளை நிர்வகி",
        "permlab_manageNetworkPolicy": "பிணைய கொள்கையை நிர்வகித்தல்",
        "permlab_manageOngoingCalls": "செயலில் உள்ள அழைப்புகளை நிர்வகித்தல்",
        "permlab_manageOwnCalls": "சிஸ்டம் மூலம் அழைப்புகளை ரூட் செய்தல்",
        "permlab_manageProfileAndDeviceOwners": "சுயவிவரத்தையும் சாதன உரிமையாளர்களையும் நிர்வகித்தல்",
        "permlab_mediaLocation": "மீடியா தொகுப்பிலிருந்து இடங்களை அறிதல்",
        "permlab_modifyAudioSettings": "எனது ஆடியோ அமைப்புகளை மாற்றுதல்",
        "permlab_modifyNetworkAccounting": "பிணைய பயன்பாட்டு கணக்கிடுதலை மாற்றுதல்",
        "permlab_nearby_wifi_devices": "அருகிலுள்ள வைஃபை சாதனங்களுடன் தொடர்பு கொள்ளுதல்",
        "permlab_nfc": "குறுகிய இடைவெளி தகவல்பரிமாற்றத்தைக் கட்டுப்படுத்துதல்",
        "permlab_persistentActivity": "ஆப்ஸை எப்போதும் இயங்குமாறு செய்தல்",
        "permlab_postNotification": "அறிவிப்புகளைக் காட்டுதல்",
        "permlab_preferredPaymentInfo": "விருப்பமான NFC கட்டண சேவை தகவல்",
        "permlab_processOutgoingCalls": "வெளிச்செல்லும் அழைப்புகளுக்கு மீண்டும் வழிகாட்டுதல்",
        "permlab_queryAllPackages": "அனைத்துப் பேக்கேஜ்களையும் பார்க்க அனுமதித்தல்",
        "permlab_readBasicPhoneState": "அடிப்படையான டெலிஃபோனி நிலையையும் அடையாளத்தையும் படித்தல்",
        "permlab_readCalendar": "கேலெண்டர் நிகழ்வுகளையும் விவரங்களையும் படிக்கலாம்",
        "permlab_readCallLog": "அழைப்புப் பதிவைப் படித்தல்",
        "permlab_readCellBroadcasts": "செல் அலைபரப்புச் செய்திகளைப் படித்தல்",
        "permlab_readContacts": "உங்கள் தொடர்புகளைப் படித்தல்",
        "permlab_readHistoryBookmarks": "உங்கள் இணையப் புத்தக்கக்குறிகள் மற்றும் வரலாற்றைப் படித்தல்",
        "permlab_readInstallSessions": "நிறுவல் அமர்வுகளைப் படித்தல்",
        "permlab_readMediaAudio": "பகிர்ந்த சேமிப்பகத்திலுள்ள ஆடியோ ஃபைல்களைப் படித்தல்",
        "permlab_readMediaImages": "பகிர்ந்த சேமிப்பகத்திலுள்ள பட ஃபைல்களைப் படித்தல்",
        "permlab_readMediaVideo": "பகிர்ந்த சேமிப்பகத்திலுள்ள வீடியோ ஃபைல்களைப் படித்தல்",
        "permlab_readNetworkUsageHistory": "பிணைய பயன்பாட்டு வரலாற்றைப் படித்தல்",
        "permlab_readPhoneNumbers": "ஃபோன் எண்களைப் படித்தல்",
        "permlab_readPhoneState": "மொபைல் நிலை மற்றும் அடையாளத்தைப் படித்தல்",
        "permlab_readSms": "உங்கள் உரைச் செய்திகளை (SMS அல்லது MMS) படித்தல்",
        "permlab_readSyncSettings": "ஒத்திசைவு அமைப்புகளைப் படித்தல்",
        "permlab_readSyncStats": "ஒத்திசைவு புள்ளிவிவரங்களைப் படித்தல்",
        "permlab_receiveBootCompleted": "தொடக்கத்தில் இயக்குதல்",
        "permlab_receiveMms": "உரைச் செய்திகளை (MMS) பெறுதல்",
        "permlab_receiveSms": "உரைச் செய்திகளை (SMS) பெறுதல்",
        "permlab_receiveWapPush": "உரைச் செய்திகளைப் (WAP) பெறுதல்",
        "permlab_recordAudio": "ஆடியோவைப் பதிவுசெய்தல்",
        "permlab_recordBackgroundAudio": "பின்புலத்தில் ஆடியோ ரெக்கார்டு செய்தல்",
        "permlab_register_call_provider": "புதிய நிறுவன இணைப்புகளைப் பதிவுசெய்தல்",
        "permlab_register_sim_subscription": "புதிய நிறுவன சிம் இணைப்புகளைப் பதிவுசெய்தல்",
        "permlab_removeDrmCertificates": "DRM சான்றிதழ்களை அகற்று",
        "permlab_reorderTasks": "இயங்கும் ஆப்ஸை மறுவரிசைப்படுத்தல்",
        "permlab_requestDeletePackages": "தொகுப்புகளை நீக்க கோரு",
        "permlab_requestIgnoreBatteryOptimizations": "பேட்டரி மேம்படுத்தல்களைப் புறக்கணிப்பதற்கான அனுமதியைக் கோரு",
        "permlab_requestInstallPackages": "நிறுவல் தொகுப்புகளைக் கோருதல்",
        "permlab_requestPasswordComplexity": "திரைப் பூட்டு தொடர்பான சிக்கலைத் தீர்க்க அனுமதி கோருதல்",
        "permlab_route_media_output": "மீடியா அவுட்புட்டை ரூட் செய்தல்",
        "permlab_runInBackground": "பின்னணியில் இயக்கு",
        "permlab_sdcardRead": "பகிர்ந்த சேமிப்பகத்தின் உள்ளடக்கங்களைப் பார்த்தல்",
        "permlab_sdcardWrite": "பகிர்ந்த சேமிப்பகத்தின் உள்ளடக்கங்களை மாற்றும் அல்லது நீக்கும்",
        "permlab_sendSms": "SMS செய்திகளை அனுப்புதல் மற்றும் பார்த்தல்",
        "permlab_setAlarm": "அலாரத்தை அமைத்தல்",
        "permlab_setInputCalibration": "உள்ளீட்டுச் சாதனத்தின் அளவுத்திருத்தத்தை மாற்றுதல்",
        "permlab_setTimeZone": "நேர மண்டலத்தை அமைத்தல்",
        "permlab_setWallpaper": "வால்பேப்பரை அமைத்தல்",
        "permlab_setWallpaperHints": "உங்கள் வால்பேப்பர் அளவைத் திருத்துதல்",
        "permlab_sim_communication": "கட்டளைகளை சிம்மிற்கு அனுப்புதல்",
        "permlab_startReviewPermissionDecisions": "அனுமதி முடிவுகளைப் பார்க்கத் தொடங்குதல்",
        "permlab_startViewAppFeatures": "ஆப்ஸின் அம்சங்களைப் பார்க்கத் தொடங்குதல்",
        "permlab_startViewPermissionUsage": "அனுமதி உபயோகத்தை அணுகுதல்",
        "permlab_statusBar": "நிலைப் பட்டியை முடக்குதல் அல்லது மாற்றுதல்",
        "permlab_statusBarService": "நிலைப் பட்டியில் இருக்கும்",
        "permlab_subscribedFeedsRead": "குழுசேர்ந்த ஊட்டங்களைப் படித்தல்",
        "permlab_systemAlertWindow": "இந்த ஆப்ஸ் பிற ஆப்ஸின் மேலே தோன்றலாம்",
        "permlab_systemCamera": "படங்கள் மற்றும் வீடியோக்களை எடுக்க கணினி கேமராக்களுக்கு ஒரு பயன்பாடு அல்லது சேவை அணுகலை அனுமதிக்கவும்",
        "permlab_transmitIr": "டிரான்ஸ்மிட் அகச்சிவப்பு",
        "permlab_uninstall_shortcut": "குறுக்குவழிகளை நிறுவல் நீக்குதல்",
        "permlab_useBiometric": "பயோமெட்ரிக் வன்பொருளைப் பயன்படுத்து",
        "permlab_useDataInBackground": "பின்னணியில் தரவைப் பயன்படுத்து",
        "permlab_useFaceAuthentication": "’முகம் காட்டித் திறத்தல்’ அம்சத்திற்கான வன்பொருளைப் பயன்படுத்துதல்",
        "permlab_useFingerprint": "கைரேகை வன்பொருளைப் பயன்படுத்து",
        "permlab_use_sip": "SIP அழைப்புகளைச் செய்தல்/பெறுதல்",
        "permlab_uwb_ranging": "அருகிலுள்ள அல்ட்ரா-வைடுபேண்ட் சாதனங்களுக்கிடையிலான தூரத்தைத் தீர்மானித்தல்",
        "permlab_vibrate": "அதிர்வைக் கட்டுப்படுத்துதல்",
        "permlab_videoWrite": "வீடியோ தொகுப்பை மாற்றுதல்",
        "permlab_wakeLock": "கார் திரையை ஆன் செய்து வைத்திருத்தல்",
        "permlab_writeCalendar": "உரிமையாளருக்குத் தெரியாமல் கேலெண்டர் நிகழ்வுகளைச் சேர்த்தல் அல்லது மாற்றுதல் மற்றும் விருந்தினர்களுக்கு மின்னஞ்சல் அனுப்புதல்",
        "permlab_writeCallLog": "அழைப்புப் பதிவை எழுதுதல்",
        "permlab_writeContacts": "உங்கள் தொடர்புகளை மாற்றுதல்",
        "permlab_writeGeolocationPermissions": "உலாவியின் புவியியல் இருப்பிடம் சார்ந்த அனுமதிகளைத் திருத்துதல்",
        "permlab_writeHistoryBookmarks": "இணையப் புத்தகக்குறிகளையும், வரலாற்றையும் எழுதுதல்",
        "permlab_writeSettings": "சாதன அமைப்புகளை மாற்றுதல்",
        "permlab_writeSyncSettings": "ஒத்திசைவை இயக்குவதையும், முடக்குவதையும் மாற்றுதல்"
    },
    "sidebars": {
        "donate": {
            "bank_transfer_name": "பெயர்",
            "bitcoin_alt": "பிட்காயின் வழியாக நன்கொடை",
            "credit_card": "கடனட்டை",
            "crypto": "நுண்",
            "currency": "காசு",
            "flattr_alt": "பிளாட்ட்டர் வழியாக நன்கொடை",
            "heading": "நன்கொடை",
            "hellotux": "👕 டி-ஷர்ட்கள் இருந்து 👕",
            "hellotux_alt": "ஹெலோடக்ஸ்",
            "hellotux_donation": "எஃப்-டிரயோடு விற்கப்படும் ஒரு சட்டைக்கு 3€ பெறும்.",
            "liberapay_alt": "லிபராபே வழியாக நன்கொடை",
            "litecoin_alt": "லைட்கோயின் வழியாக நன்கொடை",
            "more_options": "மேலும் தெரிவுகள்",
            "opencollective_alt": "எங்கள் கூட்டுக்கு நன்கொடை",
            "paypal": "பேபால்",
            "paypal_alt": "பேபால் வழியாக நன்கொடை",
            "powered_by_donations": "எஃப்-டிரயோடு உங்கள் நன்கொடைகள் மூலம் இயக்கப்படுகிறது!",
            "via_bank_transfer": "வங்கி பரிமாற்றம்"
        },
        "lang": {
            "change": "மாற்று"
        },
        "last_updated": {
            "heading": "கடைசியாக புதுப்பிக்கப்பட்டது"
        },
        "latest_packages": {
            "heading": "சமீபத்திய பயன்பாடுகள்"
        },
        "news": {
            "heading": "செய்தி"
        },
        "search": {
            "heading": "பயன்பாடுகளைக் கண்டறியவும்",
            "noscript": "ஜாவாஸ்கிரிப்ட் இயக்கப்பட வேண்டும்",
            "search": "தேடுக"
        }
    }
}
