{
    "antifeatures": {
        "Ads": "Questa app contiene pubblicità",
        "DisabledAlgorithm": "Questa app ha una firma di sicurezza debole",
        "KnownVuln": "Questa app contiene una vulnerabilità di sicurezza nota",
        "NSFW": "Il contenuto di questa app non è adatto ad essere mostrato ovunque",
        "NoSourceSince": "Il codice sorgente non è più disponibile, aggiornamenti non possibili",
        "NonFreeAdd": "Questa app promuove add-on non liberi",
        "NonFreeAssets": "Questa app contiene risorse non libere",
        "NonFreeDep": "Questa app dipende da altre app non libere",
        "NonFreeNet": "Questa app promuove o dipende completamente da un servizio di rete non libero",
        "Tracking": "Questa app monitora e riferisce sulle tue attività",
        "UpstreamNonFree": "Il codice sorgente a monte non è completamente libero"
    },
    "app_categories": {
        "Connectivity": "Connettività",
        "Development": "Sviluppo",
        "Games": "Giochi",
        "Graphics": "Grafica",
        "Internet": "Internet",
        "Money": "Soldi",
        "Multimedia": "Multimedia",
        "Navigation": "Navigazione",
        "Phone & SMS": "Telefono e SMS",
        "Reading": "Lettura",
        "Science & Education": "Scienza ed educazione",
        "Security": "Sicurezza",
        "Sports & Health": "Sport e salute",
        "System": "Sistema",
        "Theming": "Tematizzazione",
        "Time": "Tempo",
        "Writing": "Scrittura",
        "show_all_packages": "Mostra tutti %d"
    },
    "index": {
        "download_fdroid": "Scarica F-Droid",
        "gpg_signature": "Firma PGP",
        "introduction": "F-Droid è un catalogo di applicazioni FOSS (Free and Open Source Software) per la piattaforma Android. Il client offre un modo semplice per navigare il catalogo, installare le app e aggiornarle direttamente sul tuo dispositivo.",
        "pgp_verification_instructions": "Istruzioni per verificare il download",
        "screenshot": "Schermata dell'app F-Droid",
        "title": "Cos'è F-Droid?"
    },
    "mirrors": {
        "cn": "Cina continentale",
        "de": "Germania",
        "indiana": "Indiana, USA",
        "se": "Svezia",
        "tw": "Taiwan",
        "ua": "Ucraina"
    },
    "navigation": {
        "about": "Informazioni",
        "apps": "Applicazioni",
        "contribute": "Contribuisci",
        "documentation": "Documentazione",
        "edit_on_gitlab": "Modifica su GitLab",
        "forum": "Forum",
        "issues": "Aiuto",
        "news": "Notizie",
        "statuspage": "Stato",
        "translate_on_weblate": "Traduci su Weblate"
    },
    "news": {
        "by": "da",
        "newer_posts": "← Post più recenti",
        "older_posts": "Post più vecchi →",
        "posted_on": "Scritto il {{ post_date }}"
    },
    "package": {
        "added_on": "Aggiunto il {{ package_added_date }}",
        "anti_features": "Anti-caratteristiche",
        "anti_features_warning": "Quest'app ha caratteristiche che potrebbero non piacerti.",
        "author": "Autore",
        "build_log": "Registro build",
        "build_metadata": "Metadati build",
        "changelog": "Cronologia",
        "donate": "Donazioni",
        "download": "Scarica {{ file_extension }}",
        "flattr": "Flattr",
        "gpg_signature": "Firma PGP",
        "issue_tracker": "Problemi segnalati",
        "liberapay": "Liberapay",
        "license": "Licenza",
        "minimum_android_version": "Questa versione richiede Android {{ android_version }} o più recente.",
        "new_in_version": "Novità nella versione {{ latest_version }}",
        "opencollective": "Open Collective",
        "package_icon_alt": "icona del pacchetto",
        "package_screenshot_alt": "schermata dell'app",
        "packages": "Pacchetti",
        "permissions": "Autorizzazioni",
        "signed_by_developer": "È compilata e firmata dallo sviluppatore originale, e garantita di corrispondere a <a href=\"{{ source_code_url }}\">questo sorgente</a>.",
        "signed_by_fdroid": "È compilata e firmata da F-Droid, che ne garantisce la corrispondenza con <a href=\"{{ source_code_url }}\">questa tarball del codice sorgente</a>.",
        "source_code": "Codice sorgente",
        "suggest_downloading_via_fdroid": "Sebbene tu abbia la possibilità di scaricare gli APK qui sotto, dovresti sapere che installando l'app in questo modo non riceverai alcuna notifica di aggiornamento e che questa è una modalità meno sicura di effettuare il download. Ti consigliamo di installare ed utilizzare il client F-Droid.",
        "suggested": "consigliato",
        "translation": "Traduzione",
        "version_info": "<b>Versione {{ package_version }}</b> ({{ package_version_code }})",
        "versions": "Versioni",
        "website": "Sito web"
    },
    "permissions": {
        "permdesc_acceptHandovers": "Consente all'app di continuare una chiamata che è stata iniziata in un'altra app.",
        "permdesc_accessBackgroundLocation": "Questa app può accedere alla posizione in qualsiasi momento, anche quando l'app non è in uso.",
        "permdesc_accessCoarseLocation": "Questa app può recuperare la tua posizione approssimativa dai Servizi di geolocalizzazione quando l'app è in uso. L'impostazione Servizi di geolocalizzazione deve essere attiva sul tuo dispositivo perché l'app possa recuperare la tua posizione.",
        "permdesc_accessDrmCertificates": "Consente a un'app di fornire e utilizzare certificati DRM. Non dovrebbe essere mai necessario per app normali.",
        "permdesc_accessFineLocation": "Questa app può recuperare la tua posizione precisa dai Servizi di geolocalizzazione quando l'app è in uso. L'impostazione Servizi di geolocalizzazione deve essere attiva sul tuo dispositivo perché l'app possa recuperare la tua posizione. Questa operazione potrebbe comportare un maggior consumo della batteria.",
        "permdesc_accessImsCallService": "Consente all'app di utilizzare il servizio IMS per fare chiamate senza il tuo intervento.",
        "permdesc_accessLocationExtraCommands": "Consente all'app di accedere a ulteriori comandi del fornitore di posizione. Ciò potrebbe consentire all'app di interferire con il funzionamento del GPS o di altre fonti di geolocalizzazione.",
        "permdesc_accessNetworkConditions": "Consente a un'applicazione di ascoltare le osservazioni sulle condizioni di rete. Da non utilizzare mai con app normali.",
        "permdesc_accessNetworkState": "Consente all'applicazione di visualizzare informazioni sulle connessioni di rete, ad esempio le reti esistenti e connesse.",
        "permdesc_accessNotifications": "Consente all'app di recuperare, esaminare e cancellare notifiche, comprese quelle pubblicate da altre app.",
        "permdesc_accessWifiState": "Consente all'applicazione di visualizzare informazioni sulle reti Wi-Fi, ad esempio di rilevare se il Wi-Fi è abilitato e il nome dei dispositivi Wi-Fi connessi.",
        "permdesc_accessWimaxState": "Consente all'applicazione di determinare se WiMAX è abilitato e informazioni su eventuali reti WiMAX che sono connesse.",
        "permdesc_access_notification_policy": "Consente all'app di leggere e modificare la configurazione della funzione Non disturbare.",
        "permdesc_activityRecognition": "Questa app può riconoscere la tua attività fisica.",
        "permdesc_addVoicemail": "Consente all'applicazione di aggiungere messaggi alla casella della segreteria.",
        "permdesc_answerPhoneCalls": "Consente all'app di rispondere a una telefonata in arrivo.",
        "permdesc_audioWrite": "Consente all'app di modificare la tua raccolta musicale.",
        "permdesc_backgroundCamera": "Questa app può scattare foto e registrare video tramite la fotocamera in qualsiasi momento.",
        "permdesc_bindCarrierMessagingService": "Consente l'associazione di un servizio di messaggi dell'operatore all'interfaccia principale. Non dovrebbe mai essere necessaria per le normali applicazioni.",
        "permdesc_bindCarrierServices": "Consente al titolare di collegarsi a servizi dell'operatore. Non dovrebbe mai essere necessaria per le normali app.",
        "permdesc_bindCellBroadcastService": "Consente all'app di essere associata al modulo di cell broadcast al fine di inoltrare i messaggi di cell broadcast man mano che arrivano. Gli avvisi cell broadcast vengono trasmessi in alcune località per avvertire di situazioni di emergenza. App dannose potrebbero interferire con le prestazioni o con il funzionamento del dispositivo quando si riceve un messaggio cell broadcast di emergenza.",
        "permdesc_bindConditionProviderService": "Consente al titolare di collegarsi all'interfaccia di primo livello di un servizio provider di condizioni. Non dovrebbe essere mai necessaria per le normali app.",
        "permdesc_bindDreamService": "Consente all'utente di associare l'interfaccia di primo livello di un servizio dream. Questa impostazione non è mai necessaria per le app normali.",
        "permdesc_bindNotificationListenerService": "Consente al titolare di vincolarsi all'interfaccia di primo livello di un servizio listener di notifica. Non dovrebbe mai essere necessaria per le normali applicazioni.",
        "permdesc_bind_connection_service": "Consente all'app di interagire con i servizi di telefonia per effettuare/ricevere chiamate.",
        "permdesc_bind_incall_service": "Consente all'app di stabilire quando e come l'utente vede lo schermo durante una chiamata.",
        "permdesc_bluetooth": "Consente all'applicazione di visualizzare la configurazione del Bluetooth sul telefono e di stabilire e accettare connessioni con dispositivi accoppiati.",
        "permdesc_bluetoothAdmin": "Consente all'applicazione di configurare il telefono Bluetooth locale e di rilevare ed effettuare l'accoppiamento con dispositivi remoti.",
        "permdesc_bluetooth_advertise": "Consente all'app di trasmettere annunci ai dispositivi Bluetooth nelle vicinanze",
        "permdesc_bluetooth_connect": "Consente all'app di connettersi ai dispositivi Bluetooth accoppiati",
        "permdesc_bluetooth_scan": "Consente all'app di rilevare e accoppiare dispositivi Bluetooth nelle vicinanze",
        "permdesc_bodySensors": "Consente all'app di accedere ai dati relativi ai sensori che monitorano le tue condizioni fisiche, ad esempio la frequenza cardiaca.",
        "permdesc_bodySensors_background": "Consente all'app di accedere ai dati dei sensori del corpo, ad esempio battito cardiaco, temperatura e percentuale di ossigeno nel sangue, mentre l'app è in secondo piano.",
        "permdesc_broadcastSticky": "Consente all'applicazione di inviare broadcast permanenti, che permangono anche al termine del broadcast. Un uso eccessivo potrebbe rendere il telefono lento o instabile causando un uso eccessivo della memoria.",
        "permdesc_callCompanionApp": "Consente all'app di visualizzare e controllare le chiamate in corso sul dispositivo. Sono incluse informazioni quali i numeri e lo stato relativi alle chiamate.",
        "permdesc_callPhone": "Consente all'applicazione di chiamare numeri di telefono senza il tuo intervento. Ciò può comportare chiamate o addebiti imprevisti. Tieni presente che ciò non consente all'applicazione di chiamare numeri di emergenza. Applicazioni dannose potrebbero generare dei costi effettuando chiamate senza la tua conferma.",
        "permdesc_camera": "Questa app può scattare foto e registrare video tramite la fotocamera mentre l'app è in uso.",
        "permdesc_cameraOpenCloseListener": "Questa app può ricevere callback quando una fotocamera viene aperta (da una specifica applicazione) o chiusa.",
        "permdesc_changeNetworkState": "Consente all'applicazione di modificare lo stato di connettività della rete.",
        "permdesc_changeTetherState": "Consente all'applicazione di modificare lo stato di connettività di rete tethering.",
        "permdesc_changeWifiMulticastState": "Consente all'applicazione di ricevere pacchetti inviati a tutti i dispositivi su una rete Wi-Fi utilizzando indirizzi multicast, non solo il tuo telefono. Viene consumata più batteria rispetto alla modalità non multicast.",
        "permdesc_changeWifiState": "Consente all'applicazione di connettersi/disconnettersi da punti di accesso Wi-Fi e di apportare modifiche alla configurazione del dispositivo per le reti Wi-Fi.",
        "permdesc_changeWimaxState": "Consente all'applicazione di connettere/disconnettere il telefono dalle reti WiMAX.",
        "permdesc_connection_manager": "Consente all'app di gestire connessioni di telecomunicazione.",
        "permdesc_control_incall_experience": "Consente all'app di offrire un'esperienza utente durante le chiamate.",
        "permdesc_createNetworkSockets": "Consente all'app di creare socket di rete e di utilizzare protocolli di rete personalizzati. Il browser e altre applicazioni forniscono mezzi per inviare i dati a Internet, quindi non è richiesta questa autorizzazione per inviare dati a Internet.",
        "permdesc_disableKeyguard": "Consente all'applicazione di disattivare il blocco tastiera ed eventuali protezioni tramite password associate. Ad esempio, il telefono disattiva il blocco tastiera quando riceve una telefonata in arrivo e lo riattiva al termine della chiamata.",
        "permdesc_enableCarMode": "Consente all'applicazione di abilitare la modalità automobile.",
        "permdesc_exemptFromAudioRecordRestrictions": "Esonera l'app dalle restrizioni per la registrazione audio.",
        "permdesc_expandStatusBar": "Consente all'applicazione di espandere o comprimere la barra di stato.",
        "permdesc_foregroundService": "Consente all'app di utilizzare i servizi in primo piano.",
        "permdesc_fullScreenIntent": "Consente all'app di visualizzare le notifiche sotto forma di attività in modalità a schermo intero su un dispositivo bloccato",
        "permdesc_getAccounts": "Consente all'applicazione di accedere all'elenco degli account noti al telefono. Ciò può includere eventuali account creati da applicazioni installate.",
        "permdesc_getPackageSize": "Consente all'applicazione di recuperare il suo codice, i suoi dati e le dimensioni della cache",
        "permdesc_getTasks": "Consente all'applicazione di recuperare informazioni sulle attività attualmente e recentemente in esecuzione. Ciò potrebbe consentire all'applicazione di scoprire informazioni sulle applicazioni in uso sul dispositivo.",
        "permdesc_handoverStatus": "Consente all'applicazione di ricevere informazioni sugli attuali trasferimenti Android Beam",
        "permdesc_highSamplingRateSensors": "Consente all'app di campionare i dati dei sensori a una frequenza maggiore di 200 Hz",
        "permdesc_imagesWrite": "Consente all'app di modificare la tua raccolta di foto.",
        "permdesc_install_shortcut": "Consente a un'applicazione di aggiungere scorciatoie alla schermata Home automaticamente.",
        "permdesc_invokeCarrierSetup": "Consente al titolare di richiamare l'app di configurazione dell'operatore-provider. Non dovrebbe essere mai necessaria per le normali applicazioni.",
        "permdesc_killBackgroundProcesses": "Consente all'applicazione di terminare i processi in background di altre applicazioni. Ciò potrebbe causare l'interruzione di altre applicazioni.",
        "permdesc_manageFace": "Consente all'app di richiamare i metodi per aggiungere e rimuovere i modelli di volti.",
        "permdesc_manageFingerprint": "Consente all'app di richiamare metodi per aggiungere e rimuovere modelli di impronte digitali da utilizzare.",
        "permdesc_manageNetworkPolicy": "Consente all'applicazione di gestire le norme di rete e definire le regole specifiche delle applicazioni.",
        "permdesc_manageOngoingCalls": "Consente a un'app di accedere a dettagli relativi alle chiamate in corso sul tuo dispositivo e di controllare tali chiamate.",
        "permdesc_manageOwnCalls": "Consente all'app di indirizzare le proprie chiamate tramite il sistema al fine di migliorare l'esperienza di chiamata.",
        "permdesc_manageProfileAndDeviceOwners": "Consente alle app di impostare i proprietari dei profili e dei dispositivi.",
        "permdesc_mediaLocation": "Consente all'app di leggere le posizioni dalla tua raccolta multimediale.",
        "permdesc_modifyAudioSettings": "Consente all'applicazione di modificare le impostazioni audio globali, come il volume e quale altoparlante viene utilizzato per l'uscita.",
        "permdesc_modifyNetworkAccounting": "Consente all'applicazione di modificare il calcolo dell'utilizzo della rete tra le applicazioni. Da non usare per normali applicazioni.",
        "permdesc_nearby_wifi_devices": "Consente all'app di annunciarsi, connettersi e determinare la posizione relativa di dispositivi Wi\\u2011Fi vicini",
        "permdesc_nfc": "Consente all'applicazione di comunicare con tag, schede e lettori NFC (Near Field Communication).",
        "permdesc_persistentActivity": "Consente all'applicazione di rendere persistenti in memoria alcune sue parti. Ciò può limitare la memoria disponibile per altre applicazioni, rallentando il telefono.",
        "permdesc_postNotification": "Consente all'app di mostrare notifiche",
        "permdesc_preferredPaymentInfo": "Consente all'app di recuperare informazioni del servizio di pagamento NFC preferito, quali destinazione della route e identificatori applicazione registrati.",
        "permdesc_processOutgoingCalls": "Consente all'app di rilevare il numero digitato durante una chiamata in uscita, con la possibilità di reindirizzare la telefonata a un numero diverso o interromperla del tutto.",
        "permdesc_queryAllPackages": "Consente a un'app di visualizzare tutti i pacchetti installati.",
        "permdesc_readBasicPhoneState": "Consente all'app di accedere alle funzionalità di telefonia di base del dispositivo.",
        "permdesc_readCalendar": "Questa app può leggere tutti gli eventi di calendario memorizzati sul telefono e condividere o salvare i dati di calendario.",
        "permdesc_readCallLog": "Questa app può leggere la cronologia chiamate.",
        "permdesc_readCellBroadcasts": "Consente all'applicazione di leggere i messaggi cell broadcast ricevuti dal dispositivo. Gli avvisi cell broadcast vengono trasmessi in alcune località per avvertire di eventuali situazioni di emergenza. Le applicazioni dannose potrebbero interferire con il rendimento o con il funzionamento del dispositivo quando si riceve un messaggio cell broadcast di emergenza.",
        "permdesc_readContacts": "Consente all'app di leggere i dati relativi ai contatti memorizzati sul telefono. Le app avranno inoltre accesso agli account memorizzati sul telefono su cui sono stati creati contatti. Potrebbero essere inclusi gli account creati da app installate. Questa autorizzazione consente alle app di salvare i dati dei tuoi contatti e app dannose potrebbero condividere i dati dei contatti a tua insaputa.",
        "permdesc_readHistoryBookmarks": "Consente all'applicazione di leggere la cronologia di tutti gli URL che il Browser ha visitato e di tutti i segnalibri del Browser. Nota. È possibile che questa autorizzazione non sia applicabile da browser di terze parti o altre applicazioni con funzionalità di navigazione web.",
        "permdesc_readInstallSessions": "Consente a un'applicazione di leggere le sessioni di installazione. L'app può conoscere i dettagli sulle installazioni di pacchetti attive.",
        "permdesc_readMediaAudio": "Consente all'app di leggere i file audio dal tuo spazio di archiviazione condiviso.",
        "permdesc_readMediaImages": "Consente all'app di leggere immagini dal tuo spazio di archiviazione condiviso.",
        "permdesc_readMediaVideo": "Consente all'app di leggere video dal tuo spazio di archiviazione condiviso.",
        "permdesc_readNetworkUsageHistory": "Consente all'applicazione di leggere dati storici di utilizzo della rete per reti e applicazioni specifiche.",
        "permdesc_readPhoneNumbers": "Consente all'app di accedere ai numeri di telefono del dispositivo.",
        "permdesc_readPhoneState": "Consente all'applicazione di accedere alle funzioni telefoniche del dispositivo. Questa autorizzazione consente all'applicazione di determinare il numero di telefono e gli ID dei dispositivi, se una chiamata è attiva e il numero remoto connesso da una chiamata.",
        "permdesc_readSms": "Questa app può leggere tutti i messaggi di testo (SMS) memorizzati sul telefono.",
        "permdesc_readSyncSettings": "Consente all'applicazione di leggere le impostazioni di sincronizzazione per un account. Ad esempio, questa autorizzazione può determinare se l'applicazione Persone è sincronizzata con un account.",
        "permdesc_readSyncStats": "Consente a un'applicazione di leggere le statistiche di sincronizzazione per un account, incluse la cronologia degli eventi di sincronizzazione e la quantità di dati sincronizzati.",
        "permdesc_receiveBootCompleted": "Consente all'applicazione di avviarsi non appena termina l'avvio del sistema. Ciò può rallentare l'avvio del telefono e consentire all'applicazione di rallentare il funzionamento generale del telefono restando sempre in esecuzione.",
        "permdesc_receiveMms": "Consente all'applicazione di ricevere ed elaborare messaggi MMS. Significa che l'applicazione potrebbe monitorare o eliminare i messaggi inviati al tuo dispositivo senza mostrarteli.",
        "permdesc_receiveSms": "Consente all'applicazione di ricevere ed elaborare messaggi SMS. Significa che l'applicazione potrebbe monitorare o eliminare i messaggi inviati al tuo dispositivo senza mostrarteli.",
        "permdesc_receiveWapPush": "Consente all'applicazione di ricevere ed elaborare messaggi WAP. Questa autorizzazione include la facoltà di monitorare o eliminare i messaggi che ti vengono inviati senza mostrarteli.",
        "permdesc_recordAudio": "Questa app può registrare audio tramite il microfono mentre l'app è in uso.",
        "permdesc_recordBackgroundAudio": "Questa app può registrare audio tramite il microfono in qualsiasi momento.",
        "permdesc_register_call_provider": "Consente all'app di registrare nuove connessioni di telecomunicazione.",
        "permdesc_register_sim_subscription": "Consente all'app di registrare nuove connessioni SIM di telecomunicazione.",
        "permdesc_removeDrmCertificates": "Consente a un'app di rimuovere certificati DRM. Non dovrebbe essere mai necessario per le app normali.",
        "permdesc_reorderTasks": "Consente all'applicazione di spostare attività in primo piano e in background. L'applicazione potrebbe farlo senza un tuo comando.",
        "permdesc_requestDeletePackages": "Consente a un'applicazione di richiedere l'eliminazione di pacchetti.",
        "permdesc_requestIgnoreBatteryOptimizations": "Consente a un'app di chiedere l'autorizzazione a ignorare le ottimizzazioni della batteria per quell'app.",
        "permdesc_requestInstallPackages": "Consente a un'applicazione di richiedere l'installazione di pacchetti.",
        "permdesc_requestPasswordComplexity": "Consente all'app di conoscere il livello di complessità del blocco schermo (alto, medio, basso o nessuno), che indica l'intervallo di caratteri possibile e il tipo di blocco schermo. L'app può inoltre suggerire agli utenti di aggiornare il blocco schermo a un livello specifico di complessità, ma gli utenti possono ignorare liberamente il suggerimento e uscire. Tieni presente che il blocco schermo non viene memorizzato come testo non crittografato, quindi l'app non conosce la password esatta.",
        "permdesc_route_media_output": "Consente a un'applicazione di indirizzare l'uscita di media verso altri dispositivi esterni.",
        "permdesc_runInBackground": "Questa app può essere eseguita in background, velocizzando il consumo della batteria.",
        "permdesc_sdcardRead": "Consente all'app di leggere i contenuti del tuo archivio condiviso.",
        "permdesc_sdcardWrite": "Consente all'app di modificare i contenuti del tuo archivio condiviso.",
        "permdesc_sendSms": "Consente all'applicazione di inviare messaggi SMS. Ciò potrebbe comportare costi imprevisti. Applicazioni dannose potrebbero generare dei costi inviando messaggi senza la tua conferma.",
        "permdesc_setAlarm": "Consente all'applicazione di impostare una sveglia in un'applicazione sveglia installata. È possibile che alcune applicazioni sveglia non possano implementare questa funzione.",
        "permdesc_setInputCalibration": "Consente all'app di modificare i parametri di calibrazione del touch screen. Questa opzione non deve essere utilizzata per le app normali.",
        "permdesc_setTimeZone": "Consente all'applicazione di modificare il fuso orario del telefono.",
        "permdesc_setWallpaper": "Consente all'applicazione di impostare lo sfondo del sistema.",
        "permdesc_setWallpaperHints": "Consente all'applicazione di impostare i suggerimenti per le dimensioni dello sfondo del sistema.",
        "permdesc_sim_communication": "Consente all'app di inviare comandi alla SIM. Questo è molto pericoloso.",
        "permdesc_startReviewPermissionDecisions": "Consente all'app che ha questa autorizzazione di avviare lo schermo per esaminare le decisioni relative all'autorizzazione. Non dovrebbe mai essere necessaria per le normali app.",
        "permdesc_startViewAppFeatures": "Consente all'app che ha questa autorizzazione di visualizzare le informazioni relative alle funzionalità di un'app.",
        "permdesc_startViewPermissionUsage": "Consente al titolare di avviare l'uso delle autorizzazioni per un'app. Non dovrebbe essere mai necessaria per le normali applicazioni.",
        "permdesc_statusBar": "Consente all'applicazione di disattivare la barra di stato o di aggiungere e rimuovere icone di sistema.",
        "permdesc_statusBarService": "Consente di visualizzare l'applicazione nella barra di stato.",
        "permdesc_subscribedFeedsRead": "Consente all'applicazione di ottenere dettagli sui feed attualmente sincronizzati.",
        "permdesc_systemAlertWindow": "Questa app può essere visualizzata sopra ad altre app o altre parti dello schermo. Ciò potrebbe interferire con il normale utilizzo dell'app e modificare la modalità di visualizzazione delle altre app.",
        "permdesc_systemCamera": "Questa app di sistema o privilegiata può scattare foto e registrare video tramite una fotocamera di sistema in qualsiasi momento. Richiede che anche l'app disponga dell'autorizzazione android.permission.CAMERA",
        "permdesc_transmitIr": "Consente all'app di utilizzare il trasmettitore a infrarossi del telefono.",
        "permdesc_uninstall_shortcut": "Consente all'applicazione di rimuovere le scorciatoie della schermata Home automaticamente.",
        "permdesc_useBiometric": "Consente all'app di utilizzare hardware biometrico per eseguire l'autenticazione",
        "permdesc_useDataInBackground": "Questa app può usare dati in background, aumentando l'utilizzo dei dati.",
        "permdesc_useFaceAuthentication": "Consente all'app di utilizzare hardware per l'autenticazione con Sblocco con il volto",
        "permdesc_useFingerprint": "Consente all'app di utilizzare l'hardware per il riconoscimento delle impronte digitali per eseguire l'autenticazione",
        "permdesc_use_sip": "Consente all'app di effettuare e ricevere chiamate SIP.",
        "permdesc_uwb_ranging": "Consenti all'app di stabilire la posizione relativa tra dispositivi a banda ultralarga nelle vicinanze",
        "permdesc_vibrate": "Consente all'applicazione di controllare la vibrazione.",
        "permdesc_vibrator_state": "Consente all'app di accedere allo stato di vibrazione.",
        "permdesc_videoWrite": "Consente all'app di modificare la tua raccolta di video.",
        "permdesc_wakeLock": "Consente all'applicazione di impedire lo stand-by del telefono.",
        "permdesc_writeCalendar": "Questa app può aggiungere, rimuovere o modificare eventi di calendario sul telefono. Può inviare messaggi che possono sembrare inviati dai proprietari del calendario o modificare eventi senza notificare i proprietari.",
        "permdesc_writeCallLog": "Consente all'applicazione di modificare il registro chiamate del telefono, inclusi i dati sulle chiamate in arrivo e in uscita. Le applicazioni dannose potrebbero farne uso per cancellare o modificare il registro chiamate.",
        "permdesc_writeContacts": "Consente all'app di modificare i dati relativi ai contatti memorizzati sul telefono. Questa autorizzazione consente alle app di eliminare i dati dei contatti.",
        "permdesc_writeGeolocationPermissions": "Consente all'applicazione di modificare le autorizzazioni di geolocalizzazione del Browser. Le applicazioni dannose potrebbero farne uso per consentire l'invio di informazioni sulla posizione a siti web arbitrari.",
        "permdesc_writeHistoryBookmarks": "Consente all'applicazione di modificare la cronologia o i segnalibri del Browser memorizzati sul telefono. Ciò potrebbe consentire all'applicazione di cancellare o modificare i dati del Browser. Nota. È possibile che questa autorizzazione non sia applicabile da browser di terze parti o altre applicazioni con funzionalità di navigazione web.",
        "permdesc_writeSettings": "Consente all'applicazione di modificare i dati delle impostazioni di sistema. Le applicazioni dannose potrebbero compromettere la configurazione di sistema.",
        "permdesc_writeSyncSettings": "Consente a un'applicazione di modificare le impostazioni di sincronizzazione per un account. Ad esempio, può servire per attivare la sincronizzazione dell'applicazione Persone con un account.",
        "permgroupbackgroundrequest_location": "Consentire all'app di richiedere la posizione in secondo piano.",
        "permgroupbackgroundrequestdetail_location": "L'app al momento può accedere alla posizione soltanto mentre la usi",
        "permgroupdesc_activityRecognition": "Consente di accedere all'attività fisica",
        "permgroupdesc_calendar": "accedere al calendario",
        "permgroupdesc_calllog": "leggere e modificare il registro chiamate del telefono",
        "permgroupdesc_camera": "scattare foto e registrare video",
        "permgroupdesc_contacts": "accedere ai contatti",
        "permgroupdesc_location": "accedere alla posizione di questo dispositivo",
        "permgroupdesc_microphone": "registrare audio",
        "permgroupdesc_nearby_devices": "Consente di rilevare dispositivi nelle vicinanze e di connettersi a tali dispositivi",
        "permgroupdesc_notifications": "mostra notifiche",
        "permgroupdesc_phone": "eseguire e gestire le telefonate",
        "permgroupdesc_readMediaAural": "accesso a musica e audio sul tuo dispositivo",
        "permgroupdesc_readMediaVisual": "accesso a foto e video sul tuo dispositivo",
        "permgroupdesc_sensors": "accedere ai dati dei sensori relativi ai tuoi parametri vitali",
        "permgroupdesc_sms": "inviare e visualizzare SMS",
        "permgroupdesc_storage": "accedere a foto, contenuti multimediali e file sul dispositivo",
        "permgrouplab_activityRecognition": "Attività fisica",
        "permgrouplab_calendar": "Calendario",
        "permgrouplab_calllog": "Log chiamate",
        "permgrouplab_camera": "Fotocamera",
        "permgrouplab_contacts": "Contatti",
        "permgrouplab_location": "Geolocalizzazione",
        "permgrouplab_microphone": "Microfono",
        "permgrouplab_nearby_devices": "Dispositivi nelle vicinanze",
        "permgrouplab_notifications": "Notifiche",
        "permgrouplab_phone": "Telefono",
        "permgrouplab_readMediaAural": "Musica e audio",
        "permgrouplab_readMediaVisual": "Foto e video",
        "permgrouplab_sensors": "Sensori del corpo",
        "permgrouplab_sms": "SMS",
        "permgrouplab_storage": "File",
        "permgrouprequest_activityRecognition": "Consentire all'app di monitorare la tua attività.",
        "permgrouprequest_calendar": "Consentire all'app <b>",
        "permgrouprequest_calllog": "Consentire all'app <b>",
        "permgrouprequest_camera": "Consentire all'app <b>",
        "permgrouprequest_contacts": "Consentire all'app <b>",
        "permgrouprequest_location": "Consentire all'app <b>",
        "permgrouprequest_microphone": "Consentire all'app <b>",
        "permgrouprequest_phone": "Consentire all'app <b>",
        "permgrouprequest_sensors": "Consentire a <b>",
        "permgrouprequest_sms": "Consentire all'app <b>",
        "permgrouprequest_storage": "Consentire all'app <b>",
        "permgrouprequestdetail_location": "L'app avrà accesso alla posizione soltanto quando la usi",
        "permission_request_notification_for_app_with_subtitle": "Autorizzazione richiesta da",
        "permlab_acceptHandover": "continuazione di una chiamata da un'altra app",
        "permlab_accessBackgroundLocation": "accesso alla posizione in background",
        "permlab_accessCoarseLocation": "Accesso alla posizione approssimativa solo in primo piano",
        "permlab_accessDrmCertificates": "accesso a certificati DRM",
        "permlab_accessFineLocation": "accesso alla posizione esatta solo in primo piano",
        "permlab_accessImsCallService": "accesso al servizio di chiamata IMS",
        "permlab_accessLocationExtraCommands": "accedere a comandi aggiuntivi di provider di geolocalizzazione",
        "permlab_accessNetworkConditions": "ascolto delle osservazioni sulle condizioni di rete",
        "permlab_accessNetworkState": "visualizzazione connessioni di rete",
        "permlab_accessNotifications": "accesso a notifiche",
        "permlab_accessWifiState": "visualizzazione connessioni Wi-Fi",
        "permlab_accessWimaxState": "connessione e disconnessione da WiMAX",
        "permlab_access_notification_policy": "accesso alla funzione Non disturbare",
        "permlab_activityRecognition": "di riconoscere l'attività fisica",
        "permlab_addVoicemail": "aggiunta di un messaggio vocale",
        "permlab_answerPhoneCalls": "risposta a telefonate in arrivo",
        "permlab_audioWrite": "di modificare la tua raccolta musicale",
        "permlab_backgroundCamera": "Acquisizione di foto e video in background",
        "permlab_bindCarrierMessagingService": "associazione a un servizio di messaggi dell'operatore",
        "permlab_bindCarrierServices": "associazione a servizi dell'operatore",
        "permlab_bindCellBroadcastService": "Inoltro di messaggi cell broadcast",
        "permlab_bindConditionProviderService": "collegamento a un servizio provider di condizioni",
        "permlab_bindDreamService": "associazione a servizio dream",
        "permlab_bindNotificationListenerService": "vincolo a un servizio listener di notifica",
        "permlab_bind_connection_service": "interazione con i servizi di telefonia",
        "permlab_bind_incall_service": "interazione con lo schermo durante una chiamata",
        "permlab_bluetooth": "accoppiamento con dispositivi Bluetooth",
        "permlab_bluetoothAdmin": "accesso alle impostazioni Bluetooth",
        "permlab_bluetooth_advertise": "Trasmissione di annunci a dispositivi Bluetooth vicini",
        "permlab_bluetooth_connect": "Connessione a dispositivi Bluetooth accoppiati",
        "permlab_bluetooth_scan": "Rilevamento e accoppiamento di dispositivi Bluetooth vicini",
        "permlab_bodySensors": "accesso ai sensori (come il cardiofrequenzimetro)",
        "permlab_bodySensors_background": "Accesso ai dati dei sensori del corpo, come il battito cardiaco, in secondo piano",
        "permlab_broadcastSticky": "invio broadcast permanenti",
        "permlab_callCompanionApp": "di visualizzare e controllare le chiamate tramite il sistema.",
        "permlab_callPhone": "chiamata diretta n. telefono",
        "permlab_camera": "acquisizione di foto e video",
        "permlab_cameraOpenCloseListener": "Consente a un'applicazione o a un servizio di ricevere callback relativi all'apertura o alla chiusura di fotocamere.",
        "permlab_changeNetworkState": "modifica connettività di rete",
        "permlab_changeTetherState": "modifica della connettività tethering",
        "permlab_changeWifiMulticastState": "ricezione multicast Wi-Fi",
        "permlab_changeWifiState": "connessione e disconnessione dal Wi-Fi",
        "permlab_changeWimaxState": "modifica stato WiMAX",
        "permlab_connection_manager": "gestione di connessioni di telecomunicazione",
        "permlab_control_incall_experience": "offerta di un'esperienza utente durante le chiamate",
        "permlab_createNetworkSockets": "accesso completo alla rete",
        "permlab_disableKeyguard": "disattivazione blocco schermo",
        "permlab_enableCarMode": "abilitazione modalità auto",
        "permlab_exemptFromAudioRecordRestrictions": "esonera dalle restrizioni per la registrazione audio",
        "permlab_expandStatusBar": "espansione/compressione barra di stato",
        "permlab_foregroundService": "esecuzione servizio in primo piano",
        "permlab_fullScreenIntent": "Visualizzazione di notifiche sotto forma di attività in modalità a schermo intero su un dispositivo bloccato",
        "permlab_getAccounts": "individuazione account sul dispositivo",
        "permlab_getPackageSize": "calcolo spazio di archiviazione applicazioni",
        "permlab_getTasks": "recupero applicazioni in esecuzione",
        "permlab_handoverStatus": "ricezione dello stato dei trasferimenti Android Beam",
        "permlab_highSamplingRateSensors": "Accesso ai dati dei sensori a una frequenza di campionamento elevata",
        "permlab_imagesWrite": "di modificare la tua raccolta di foto",
        "permlab_install_shortcut": "aggiunta di scorciatoie",
        "permlab_invokeCarrierSetup": "richiamo dell'app di configurazione operatore-provider",
        "permlab_killBackgroundProcesses": "chiusura altre applicazioni",
        "permlab_manageFace": "gestione dell'hardware per Sblocco con il volto",
        "permlab_manageFingerprint": "gestione di hardware per il riconoscimento delle impronte digitali",
        "permlab_manageNetworkPolicy": "gestione norme rete",
        "permlab_manageOngoingCalls": "Gestione delle chiamate in corso",
        "permlab_manageOwnCalls": "indirizzamento delle chiamate tramite il sistema",
        "permlab_manageProfileAndDeviceOwners": "gestione dei proprietari di dispositivi e profili",
        "permlab_mediaLocation": "di leggere le posizioni dalla tua raccolta multimediale",
        "permlab_modifyAudioSettings": "modifica impostazioni audio",
        "permlab_modifyNetworkAccounting": "modifica calcolo dell'utilizzo della rete",
        "permlab_nearby_wifi_devices": "interazione con dispositivi Wi\\u2011Fi vicini",
        "permlab_nfc": "controllo Near Field Communication",
        "permlab_persistentActivity": "esecuzione permanente delle applicazioni",
        "permlab_postNotification": "mostra notifiche",
        "permlab_preferredPaymentInfo": "Informazioni del servizio di pagamento NFC preferito",
        "permlab_processOutgoingCalls": "reindirizzamento chiamate in uscita",
        "permlab_queryAllPackages": "Invio di query per tutti i pacchetti",
        "permlab_readBasicPhoneState": "lettura di identità e stato del telefono",
        "permlab_readCalendar": "lettura di eventi di calendario e dettagli",
        "permlab_readCallLog": "lettura del registro chiamate",
        "permlab_readCellBroadcasts": "lettura di messaggi cell broadcast",
        "permlab_readContacts": "lettura contatti personali",
        "permlab_readHistoryBookmarks": "lettura segnalibri e cronologia web",
        "permlab_readInstallSessions": "lettura delle sessioni di installazione",
        "permlab_readMediaAudio": "lettura di file audio dallo spazio di archiviazione condiviso",
        "permlab_readMediaImages": "lettura di immagini dallo spazio di archiviazione condiviso",
        "permlab_readMediaVideo": "lettura di video dallo spazio di archiviazione condiviso",
        "permlab_readNetworkUsageHistory": "lettura dati storici di utilizzo della rete",
        "permlab_readPhoneNumbers": "lettura dei numeri di telefono",
        "permlab_readPhoneState": "lettura stato e identità telefono",
        "permlab_readSms": "lettura messaggi di testo personali (SMS o MMS)",
        "permlab_readSyncSettings": "lettura impostazioni di sincronizzazione",
        "permlab_readSyncStats": "lettura statistiche di sincronizzazione",
        "permlab_receiveBootCompleted": "esecuzione all'avvio",
        "permlab_receiveMms": "ricezione messaggi di testo (MMS)",
        "permlab_receiveSms": "ricezione messaggi di testo (SMS)",
        "permlab_receiveWapPush": "ricezione messaggi di testo (WAP)",
        "permlab_recordAudio": "registrazione audio",
        "permlab_recordBackgroundAudio": "Registrazione di audio in background",
        "permlab_register_call_provider": "registrazione di nuove connessioni di telecomunicazione",
        "permlab_register_sim_subscription": "registrazione di nuove connessioni SIM di telecomunicazione",
        "permlab_removeDrmCertificates": "rimozione di certificati DRM",
        "permlab_reorderTasks": "riordinamento applicazioni in esecuzione",
        "permlab_requestDeletePackages": "richiesta di eliminazione dei pacchetti",
        "permlab_requestIgnoreBatteryOptimizations": "richiesta di ignorare le ottimizzazioni della batteria",
        "permlab_requestInstallPackages": "richiesta di pacchetti di installazione",
        "permlab_requestPasswordComplexity": "di richiedere la complessità del blocco schermo",
        "permlab_route_media_output": "indirizzamento dell'uscita dei contenuti multimediali",
        "permlab_runInBackground": "esecuzione in background",
        "permlab_sdcardRead": "lettura dei contenuti dell'archivio condiviso",
        "permlab_sdcardWrite": "modifica/eliminazione dei contenuti dell'archivio condiviso",
        "permlab_sendSms": "invio e visualizzazione di SMS",
        "permlab_setAlarm": "impostazione sveglia",
        "permlab_setInputCalibration": "modifica calibrazione del dispositivo di immissione",
        "permlab_setTimeZone": "impostazione fuso orario",
        "permlab_setWallpaper": "impostazione sfondo",
        "permlab_setWallpaperHints": "regolazione dimensioni sfondo",
        "permlab_sim_communication": "invio di comandi alla SIM",
        "permlab_startReviewPermissionDecisions": "avvia vista decisioni dell'autorizzazione",
        "permlab_startViewAppFeatures": "avvia vista funzionalità dell'app",
        "permlab_startViewPermissionUsage": "di avviare l'uso dell'autorizzazione di visualizzazione",
        "permlab_statusBar": "disattivazione o modifica della barra di stato",
        "permlab_statusBarService": "ruolo di barra di stato",
        "permlab_subscribedFeedsRead": "lettura feed sottoscritti",
        "permlab_systemAlertWindow": "Questa app può essere visualizzata sopra ad altre app",
        "permlab_systemCamera": "Consente a un'applicazione o a un servizio di accedere alle fotocamere di sistema per fare foto e video",
        "permlab_transmitIr": "trasmissione a infrarossi",
        "permlab_uninstall_shortcut": "eliminazione di scorciatoie",
        "permlab_useBiometric": "utilizzo di hardware biometrico",
        "permlab_useDataInBackground": "utilizzo dei dati in background",
        "permlab_useFaceAuthentication": "utilizzo dell'hardware per Sblocco con il volto",
        "permlab_useFingerprint": "utilizzo di hardware per il riconoscimento delle impronte digitali",
        "permlab_use_sip": "invio/ricezione di chiamate SIP",
        "permlab_uwb_ranging": "Possibilità di stabilire la posizione relativa tra dispositivi a banda ultralarga nelle vicinanze",
        "permlab_vibrate": "controllo vibrazione",
        "permlab_videoWrite": "di modificare la tua raccolta di video",
        "permlab_wakeLock": "disattivazione stand-by del telefono",
        "permlab_writeCalendar": "aggiunta o modifica di eventi di calendario e invio di email agli ospiti a insaputa dei proprietari",
        "permlab_writeCallLog": "scrittura del registro chiamate",
        "permlab_writeContacts": "modifica dei contatti personali",
        "permlab_writeGeolocationPermissions": "modifica delle autorizzazioni di geolocalizzazione del browser",
        "permlab_writeHistoryBookmarks": "scrittura segnalibri e cronologia web",
        "permlab_writeSettings": "modifica delle impostazioni di sistema",
        "permlab_writeSyncSettings": "attivazione e disattivazione della sincronizzazione"
    },
    "sidebars": {
        "donate": {
            "bank_transfer_name": "Nome",
            "bitcoin_alt": "Dona con Bitcoin",
            "credit_card": "Carta di credito",
            "crypto": "Cripto",
            "currency": "Valuta",
            "flattr_alt": "Dona via Flattr",
            "heading": "Donazioni",
            "hellotux": "👕 Magliette 👕 da",
            "hellotux_alt": "HELLOTUX",
            "hellotux_donation": "F-Droid riceverà 3 € per ogni maglietta venduta.",
            "liberapay_alt": "Dona con Liberapay",
            "litecoin_alt": "Dona via Litecoin",
            "more_options": "Altre opzioni",
            "opencollective_alt": "Dona al nostro collettivo",
            "paypal": "PayPal",
            "paypal_alt": "Dona via PayPal",
            "powered_by_donations": "F-Droid è sostenuto dalle vostre donazioni!",
            "via_bank_transfer": "Bonifico bancario"
        },
        "lang": {
            "change": "Cambia"
        },
        "last_updated": {
            "heading": "Ultimi aggiornamenti"
        },
        "latest_packages": {
            "heading": "App più recenti"
        },
        "news": {
            "heading": "Notizie"
        },
        "search": {
            "heading": "Trova app",
            "noscript": "Richiede JavaScript attivo",
            "search": "Cerca"
        }
    }
}
